emitting to 
Connecting with parameters:
host=testserver.helloworldopen.com, port=8091, bot name=clarkson, key=IP+X0HbJO1DeYg
Joined
Got yourCar at time None
-1,0,0,0.000000,0.000000,0.000000,0.000000
Race started
1,0,0,0.000000,0.000000,0.000000,0.000000
2,0,0,0.000000,0.000000,0.000000,0.000000
3,0,0,0.000000,0.000000,0.000000,0.000000
4,0,0,0.000000,0.000000,0.000000,0.000000
5,0,0,0.000000,0.000000,0.000000,0.000000
6,0,0,0.000000,0.000000,0.000000,0.000000
7,0,0,0.000000,0.000000,0.000000,0.000000
8,0,0,0.000000,0.000000,0.000000,0.000000
9,0,0,0.000000,0.000000,0.000000,0.000000
10,0,0,0.000000,0.000000,0.000000,0.000000
11,0,0,0.000000,0.000000,0.000000,0.000000
12,0,0,0.000000,0.000000,0.000000,0.000000
13,0,0,0.000000,0.000000,0.000000,0.000000
14,0,0,0.000000,0.000000,0.000000,0.000000
15,0,0,0.000000,0.000000,0.000000,0.000000
16,0,0,0.000000,0.000000,0.000000,0.000000
17,0,0,0.000000,0.000000,0.000000,0.000000
18,0,0,0.000000,0.000000,0.000000,0.000000
19,0,0,0.000000,0.000000,0.000000,0.000000
20,0,0,0.000000,0.000000,0.000000,0.000000
21,0,0,0.000000,0.000000,0.000000,0.000000
22,0,0,0.000000,0.000000,0.000000,0.000000
23,0,0,0.000000,0.000000,0.000000,0.000000
24,0,0,0.000000,0.000000,0.000000,0.000000
25,0,0,0.000000,0.000000,0.000000,0.000000
26,0,0,0.000000,0.000000,0.000000,0.000000
27,0,0,0.000000,0.000000,0.000000,0.000000
28,0,0,0.000000,0.000000,0.000000,0.000000
29,0,0,0.000000,0.000000,0.000000,0.000000
30,0,0,0.000000,0.000000,0.000000,0.000000
31,0,0,0.000000,0.000000,0.000000,0.000000
32,0,0,0.000000,0.000000,0.000000,0.000000
33,0,0,0.000000,0.000000,0.000000,0.000000
34,0,0,0.000000,0.000000,0.000000,0.000000
35,0,0,0.000000,0.000000,0.000000,0.000000
36,0,0,0.000000,0.000000,0.000000,0.000000
37,0,0,0.000000,0.000000,0.000000,0.000000
38,0,0,0.000000,0.000000,0.000000,0.000000
39,0,0,0.000000,0.000000,0.000000,0.000000
40,0,0,0.000000,0.000000,0.000000,0.000000
41,0,1,0.000000,0.000000,0.000000,0.000000
42,0,1,0.000000,0.000000,0.000000,0.000000
43,0,1,0.000000,0.000000,0.000000,0.000000
44,0,1,0.000000,0.000000,0.000000,0.000000
45,0,1,0.000000,0.000000,0.000000,0.000000
46,0,1,0.000000,0.000000,0.000000,0.000000
47,0,1,0.000000,0.000000,0.000000,0.000000
48,0,1,0.000000,0.000000,0.000000,0.000000
49,0,1,0.000000,0.000000,0.000000,0.000000
50,0,1,0.000000,0.000000,0.000000,0.000000
51,0,1,0.000000,0.000000,0.000000,0.000000
52,0,1,0.000000,0.000000,0.000000,0.000000
53,0,1,0.000000,0.000000,0.000000,0.000000
54,0,1,0.000000,0.000000,0.000000,0.000000
55,0,1,0.000000,0.000000,0.000000,0.000000
56,0,1,0.000000,0.000000,0.000000,0.000000
57,0,1,0.000000,0.000000,0.000000,0.000000
58,0,1,0.000000,0.000000,0.000000,0.000000
59,0,2,0.000000,0.000000,0.000000,0.000000
60,0,2,0.000000,0.000000,0.000000,0.000000
61,0,2,0.000000,0.000000,0.000000,0.000000
62,0,2,0.000000,0.000000,0.000000,0.000000
63,0,2,0.000000,0.000000,0.000000,0.000000
64,0,2,0.000000,0.000000,0.000000,0.000000
65,0,2,0.000000,0.000000,0.000000,0.000000
66,0,2,0.000000,0.000000,0.000000,0.000000
67,0,2,0.000000,0.000000,0.000000,0.000000
68,0,2,0.000000,0.000000,0.000000,0.000000
69,0,2,0.000000,0.000000,0.000000,0.000000
70,0,2,0.000000,0.000000,0.000000,0.000000
71,0,2,0.000000,0.000000,0.000000,0.000000
72,0,2,0.000000,0.000000,0.000000,0.000000
73,0,2,0.000000,0.000000,0.000000,0.000000
74,0,3,0.000000,0.000000,0.000000,0.000000
75,0,3,0.000000,0.000000,0.000000,0.000000
76,0,3,0.000000,0.000000,0.000000,0.000000
77,0,3,0.000000,0.000000,0.000000,0.000000
78,0,3,0.000000,0.000000,0.000000,0.000000
79,0,3,0.000000,0.000000,0.000000,0.000000
80,0,3,0.000000,0.000000,0.000000,0.000000
81,0,3,0.000000,0.000000,0.000000,0.000000
82,0,3,0.000000,0.000000,0.000000,0.000000
83,0,3,0.000000,0.000000,0.000000,0.000000
84,0,3,0.000000,0.000000,0.000000,0.000000
85,0,3,0.000000,0.000000,0.000000,0.000000
86,0,3,0.000000,0.000000,0.000000,0.000000
87,0,3,0.000000,0.000000,0.000000,0.000000
88,0,3,0.000000,0.000000,0.000000,0.000000
89,0,3,0.000000,0.000000,0.000000,0.000000
90,0,4,0.000000,0.000000,0.000000,0.000000
91,0,4,0.227441,0.227441,0.000000,0.227441
92,0,4,0.209108,0.413805,0.204697,0.641246
93,0,4,0.178541,0.549259,0.370719,1.190505
94,0,4,0.149741,0.639265,0.489524,1.829770
95,0,4,0.122637,0.689046,0.566409,2.518816
96,0,4,0.097146,0.703565,0.606418,3.222381
97,0,4,0.073175,0.687492,0.614317,3.909873
98,0,4,0.050625,0.645200,0.594575,4.555073
99,0,4,0.029392,0.580748,0.551356,5.135821
100,0,4,0.009372,0.497882,0.488510,5.633703
101,0,4,0.000975,0.410550,0.409575,6.044253
102,0,4,0.002477,0.329719,0.327242,6.373972
103,0,5,0.003906,0.255321,0.251415,6.629293
104,0,5,0.005250,0.187234,0.181984,6.816527
105,0,5,0.006497,0.125288,0.118791,6.941816
106,0,5,0.007326,0.068962,0.061636,7.010777
107,0,5,0.008048,0.018050,0.010002,7.028827
108,0,5,0.008665,-0.027672,-0.036336,7.001155
109,0,5,0.009181,-0.068440,-0.077621,6.932716
110,0,5,0.009601,-0.104504,-0.114104,6.828212
111,0,5,0.009929,-0.136120,-0.146049,6.692092
112,0,5,0.010171,-0.163548,-0.173719,6.528544
113,0,5,0.010332,-0.187052,-0.197384,6.341492
114,0,5,0.010418,-0.206893,-0.217311,6.134599
115,0,5,0.010434,-0.223331,-0.233765,5.911268
116,0,5,0.010386,-0.236621,-0.247008,5.674647
117,0,6,0.010281,-0.247013,-0.257294,5.427634
118,0,6,0.010123,-0.254749,-0.264871,5.172885
119,0,6,0.009918,-0.260063,-0.269981,4.912822
120,0,6,0.009046,-0.263807,-0.272853,4.649015
121,0,6,0.008221,-0.266052,-0.274273,4.382963
122,0,6,0.007444,-0.266871,-0.274314,4.116092
123,0,6,0.006716,-0.266340,-0.273056,3.849753
124,0,6,0.006039,-0.264537,-0.270576,3.585215
125,0,6,0.005412,-0.261545,-0.266957,3.323670
126,0,6,0.004834,-0.257446,-0.262280,3.066224
127,0,6,0.008555,-0.248074,-0.256629,2.818150
128,0,6,0.029610,-0.216653,-0.246263,2.601497
129,0,6,0.050676,-0.165448,-0.216124,2.436049
130,0,6,0.071747,-0.096668,-0.168415,2.339380
131,0,7,0.092811,-0.012461,-0.105272,2.326919
132,0,7,0.113850,0.085090,-0.028760,2.412009
133,0,7,0.134845,0.193974,0.059129,2.605983
134,0,7,0.155769,0.312256,0.156487,2.918239
135,0,7,0.176597,0.438083,0.261485,3.356322
136,0,7,0.197301,0.569689,0.372388,3.926011
137,0,7,0.217851,0.705398,0.487547,4.631409
138,0,7,0.238218,0.843631,0.605413,5.475040
139,0,7,0.258374,0.982907,0.724533,6.457947
140,0,7,0.278291,1.121845,0.843553,7.579792
141,0,7,0.297943,1.259168,0.961226,8.838960
142,0,7,0.317304,1.393707,1.076403,10.232667
143,0,8,0.336351,1.524395,1.188044,11.757062
144,0,8,-0.017408,1.277802,1.295211,13.034865
145,0,8,-0.017024,1.044820,1.061844,14.079685
146,0,8,-0.016737,0.825840,0.842577,14.905525
147,0,8,-0.016512,0.621146,0.637658,15.526671
148,0,8,-0.016322,0.430918,0.447240,15.957589
149,0,8,-0.016140,0.255237,0.271377,16.212826
150,0,8,-0.015946,0.094085,0.110031,16.306911
151,0,8,-0.015723,-0.052642,-0.036920,16.254269
152,0,8,-0.015457,-0.185137,-0.169680,16.069132
153,0,8,-0.015138,-0.303668,-0.288530,15.765464
154,0,9,-0.014760,-0.408580,-0.393820,15.356884
155,0,9,-0.014317,-0.500279,-0.485963,14.856605
156,0,9,-0.013807,-0.579235,-0.565428,14.277370
157,0,9,-0.013232,-0.645968,-0.632736,13.631402
158,0,9,-0.012592,-0.701043,-0.688451,12.930359
159,0,9,-0.011892,-0.745066,-0.733174,12.185293
160,0,9,-0.011137,-0.778674,-0.767537,11.406619
161,0,9,-0.010333,-0.802529,-0.792196,10.604090
162,0,9,-0.009487,-0.817313,-0.807826,9.786777
163,0,9,-0.008607,-0.823719,-0.815112,8.963059
164,0,9,-0.007700,-0.822448,-0.814747,8.140611
165,0,9,-0.006777,-0.814202,-0.807426,7.326409
166,0,9,-0.005844,-0.799680,-0.793837,6.526728
167,0,9,-0.004910,-0.779571,-0.774660,5.747158
168,0,10,-0.003984,-0.754548,-0.750564,4.992610
169,0,10,-0.003073,-0.725270,-0.722197,4.267339
170,0,10,-0.002186,-0.692374,-0.690188,3.574966
171,0,10,-0.001328,-0.656469,-0.655141,2.918497
172,0,10,-0.000505,-0.618139,-0.617634,2.300358
173,0,10,0.000275,-0.577939,-0.578214,1.722419
174,0,10,0.001009,-0.536388,-0.537398,1.186030
175,0,10,0.001693,-0.493975,-0.495668,0.692055
176,0,10,0.002322,-0.451151,-0.453473,0.240905
177,0,10,0.002894,-0.408332,-0.411226,-0.167427
178,0,10,0.003408,-0.365897,-0.369305,-0.533324
179,0,10,0.003861,-0.324191,-0.328052,-0.857515
180,0,10,0.004254,-0.283518,-0.287772,-1.141033
181,0,11,0.004586,-0.244148,-0.248735,-1.385181
182,0,11,0.004858,-0.206318,-0.211176,-1.591499
183,0,11,0.005071,-0.170226,-0.175297,-1.761725
184,0,11,0.005228,-0.136039,-0.141267,-1.897764
185,0,11,0.005330,-0.103893,-0.109222,-2.001656
186,0,11,0.005379,-0.073891,-0.079270,-2.075547
187,0,11,0.005379,-0.046110,-0.051490,-2.121657
188,0,11,0.005334,-0.020599,-0.025933,-2.142256
189,0,11,0.005246,0.002620,-0.002626,-2.139636
190,0,11,0.005120,0.023545,0.018425,-2.116092
191,0,12,0.004959,0.042196,0.037237,-2.073896
192,0,12,0.004766,0.058614,0.053847,-2.015282
193,0,12,0.004548,0.072854,0.068306,-1.942428
194,0,12,0.004306,0.084989,0.080683,-1.857439
195,0,12,0.004045,0.095103,0.091058,-1.762337
196,0,12,0.003768,0.103292,0.099523,-1.659045
197,0,12,0.003481,0.109661,0.106180,-1.549384
198,0,12,0.003185,0.114322,0.111137,-1.435062
199,0,12,0.002884,0.117395,0.114510,-1.317667
200,0,12,0.002582,0.119001,0.116418,-1.198666
201,0,12,0.002282,0.119265,0.116983,-1.079401
202,0,12,0.001985,0.118314,0.116328,-0.961088
203,0,12,0.001695,0.116273,0.114578,-0.844814
204,0,13,0.001414,0.113269,0.111854,-0.731546
205,0,13,0.001144,0.109422,0.108278,-0.622124
206,0,13,0.000886,0.104852,0.103966,-0.517272
207,0,13,0.000576,0.099609,0.099033,-0.417663
208,0,13,0.000308,0.093835,0.093527,-0.323828
209,0,13,0.000080,0.087665,0.087584,-0.236163
210,0,13,-0.000110,0.081217,0.081327,-0.154946
211,0,13,-0.000266,0.074601,0.074866,-0.080346
212,0,13,-0.000389,0.067913,0.068303,-0.012432
213,0,13,-0.000484,0.061240,0.061725,0.048808
214,0,13,-0.000553,0.054656,0.055210,0.103464
215,0,13,-0.000599,0.048225,0.048825,0.151689
216,0,13,-0.000626,0.042001,0.042627,0.193690
217,0,14,-0.000635,0.036028,0.036663,0.229718
218,0,14,-0.764304,-0.733331,0.030973,-0.503613
219,0,14,-0.722556,-1.384276,-0.661721,-1.887889
220,0,14,-0.682124,-1.924196,-1.242072,-3.812085
221,0,14,-0.643212,-2.360829,-1.717617,-6.172914
222,0,14,-0.605970,-2.702125,-2.096155,-8.875039
223,0,14,-0.570501,-2.956117,-2.385616,-11.831157
224,0,14,-0.536868,-3.130811,-2.593943,-14.961968
225,0,14,-0.505097,-3.234094,-2.728997,-18.196062
226,0,14,-0.475184,-3.273654,-2.798470,-21.469716
227,0,15,-0.447099,-3.256918,-2.809818,-24.726634
228,0,15,-0.420791,-3.190994,-2.770203,-27.917628
229,0,15,-0.396191,-3.082636,-2.686445,-31.000264
230,0,15,-0.373218,-2.938208,-2.564990,-33.938471
231,0,15,-0.351779,-2.763664,-2.411885,-36.702136
232,0,15,-0.331776,-2.564536,-2.232759,-39.266671
233,0,15,-0.313106,-2.345922,-2.032816,-41.612594
234,0,15,-0.295662,-2.112492,-1.816830,-43.725085
235,0,15,-0.279339,-1.868487,-1.589148,-45.593572
236,0,15,-0.264031,-1.617731,-1.353700,-47.211303
237,0,15,-0.249638,-1.363644,-1.114006,-48.574947
238,0,16,-0.236060,-1.109255,-0.873195,-49.684202
239,0,16,-0.223206,-0.857223,-0.634018,-50.541426
240,0,16,-0.210986,-0.609855,-0.398870,-51.151281
241,0,16,-0.230882,-0.400691,-0.169809,-51.551972
242,0,16,-0.250441,-0.227428,0.023012,-51.779401
243,0,16,-0.269703,-0.087748,0.181954,-51.867149
244,0,16,-0.288699,0.020673,0.309372,-51.846476
245,0,16,-0.307451,0.100159,0.407610,-51.746317
246,0,16,-0.325974,0.153018,0.478991,-51.593300
247,0,16,-0.344275,0.181538,0.525813,-51.411761
248,0,16,-0.362358,0.187976,0.550334,-51.223785
249,0,16,-0.380220,0.174547,0.554767,-51.049238
250,0,17,-0.397855,0.143416,0.541271,-50.905822
251,0,17,-0.415256,0.096688,0.511944,-50.809134
252,0,17,-0.432410,0.036402,0.468813,-50.772731
253,0,17,-0.449308,-0.035477,0.413831,-50.808208
254,0,17,-0.465934,-0.117067,0.348866,-50.925276
255,0,17,-0.482275,-0.206574,0.275701,-51.131850
256,0,17,-0.498318,-0.302295,0.196023,-51.434145
257,0,17,-0.514051,-0.402628,0.111423,-51.836773
258,0,17,-0.529460,-0.506069,0.023391,-52.342841
259,0,17,-0.544534,-0.611220,-0.066686,-52.954061
260,0,18,-0.559264,-0.716790,-0.157527,-53.670852
261,0,18,0.073580,-0.174376,-0.247956,-53.845228
262,0,18,0.072282,0.317874,0.245593,-53.527354
263,0,18,0.066960,0.756887,0.689926,-52.770467
264,0,18,0.061518,1.144171,1.082653,-51.626296
265,0,18,0.056035,1.481568,1.425533,-50.144728
266,0,18,0.050583,1.771191,1.720608,-48.373536
267,0,18,0.045223,2.015381,1.970158,-46.358156
268,0,18,0.040006,2.216651,2.176644,-44.141505
269,0,18,0.034977,2.377649,2.342672,-41.763856
270,0,18,0.030170,2.501115,2.470945,-39.262741
271,0,18,0.025614,2.589847,2.564233,-36.672894
272,0,18,0.021330,2.646663,2.625333,-34.026231
273,0,18,0.017334,2.674378,2.657044,-31.351853
274,0,18,0.013636,2.675773,2.662137,-28.676080
275,0,19,0.010241,2.653576,2.643335,-26.022504
276,0,19,0.566673,3.169962,2.603289,-22.852542
277,0,19,0.552803,3.600937,3.048135,-19.251604
278,0,19,0.516832,3.929069,3.412238,-15.322535
279,0,19,0.482856,4.163405,3.680549,-11.159130
280,0,19,0.450901,4.312885,3.861984,-6.846245
281,0,19,0.420963,4.386253,3.965290,-2.459992
282,0,19,0.393006,4.391981,3.998974,1.931989
283,0,19,0.366974,4.338207,3.971233,6.270196
284,0,19,0.342790,4.232686,3.889896,10.502881
285,0,20,0.320363,4.082754,3.762391,14.585635
286,0,20,0.299592,3.895298,3.595707,18.480934
287,0,20,0.280366,3.676742,3.396376,22.157676
288,0,20,0.279896,3.450357,3.170461,25.608033
289,0,20,0.279599,3.218738,2.939139,28.826771
290,0,20,0.279454,2.984257,2.704804,31.811028
291,0,20,0.279441,2.749072,2.469631,34.560100
292,0,20,0.279542,2.515124,2.235582,37.075224
293,0,20,0.279738,2.284149,2.004411,39.359373
294,0,20,0.280014,2.057684,1.777670,41.417057
295,0,20,0.280354,1.837075,1.556720,43.254131
296,0,20,0.280744,1.623483,1.342739,44.877614
297,0,21,0.281169,1.417898,1.136729,46.295512
298,0,21,0.281620,1.221146,0.939526,47.516658
299,0,21,0.282084,1.033899,0.751815,48.550557
300,0,21,0.282552,0.856686,0.574134,49.407243
301,0,21,0.283015,0.689903,0.406888,50.097145
302,0,21,0.283465,0.533824,0.250358,50.630969
303,0,21,0.283897,0.388610,0.104713,51.019578
304,0,21,0.284304,0.254320,-0.029984,51.273898
305,0,21,0.284681,0.130922,-0.153759,51.404820
306,0,21,0.285024,0.018299,-0.266725,51.423119
307,0,21,0.285330,-0.083737,-0.369067,51.339383
308,0,22,0.285597,-0.175439,-0.461036,51.163943
309,0,22,0.285823,-0.257118,-0.542941,50.906825
310,0,22,0.286006,-0.329130,-0.615136,50.577695
311,0,22,0.304669,-0.373349,-0.678018,50.204346
312,0,22,0.323138,-0.392209,-0.715347,49.812138
313,0,22,0.341415,-0.388105,-0.729520,49.424032
314,0,22,0.359497,-0.363389,-0.722886,49.060644
315,0,22,0.377377,-0.320353,-0.697730,48.740290
316,0,22,0.395044,-0.261229,-0.656273,48.479062
317,0,22,0.412486,-0.188171,-0.600658,48.290890
318,0,22,0.429689,-0.103258,-0.532947,48.187632
319,0,23,0.446637,-0.008477,-0.455114,48.179156
320,0,23,-0.043017,-0.412054,-0.369036,47.767102
321,0,23,-0.042243,-0.774435,-0.732192,46.992667
322,0,23,-0.041317,-1.096561,-1.055245,45.896106
323,0,23,-0.040220,-1.379570,-1.339350,44.516536
324,0,23,-0.038940,-1.624774,-1.585834,42.891762
325,0,23,-0.037473,-1.833643,-1.796170,41.058120
326,0,23,-0.035819,-2.007786,-1.971967,39.050333
327,0,23,-0.033987,-2.148930,-2.114943,36.901403
328,0,23,-0.031987,-2.258902,-2.226915,34.642501
329,0,23,-0.029835,-2.339607,-2.309772,32.302894
330,0,24,-0.027548,-2.393013,-2.365465,29.909880
331,0,24,-0.025148,-2.421131,-2.395984,27.488749
332,0,24,-0.022656,-2.425999,-2.403342,25.062750
333,0,24,-0.020097,-2.409661,-2.389564,22.653089
334,0,24,-0.017493,-2.374159,-2.356665,20.278931
335,0,24,-0.014871,-2.321512,-2.306641,17.957419
336,0,24,-0.012252,-2.253705,-2.241453,15.703714
337,0,24,-0.009662,-2.172677,-2.163015,13.531037
338,0,24,-0.007121,-2.080308,-2.073187,11.450729
339,0,24,-0.004650,-1.978410,-1.973760,9.472320
340,0,24,-0.002269,-1.868719,-1.866449,7.603601
341,0,25,0.000004,-1.752885,-1.752889,5.850716
342,0,25,0.002156,-1.632468,-1.634623,4.218249
343,0,25,0.004171,-1.508930,-1.513101,2.709318
344,0,25,0.006226,-1.383449,-1.389674,1.325870
345,0,25,0.007929,-1.257494,-1.265424,0.068375
346,0,25,0.009307,-1.132382,-1.141689,-1.064007
347,0,25,0.010387,-1.009270,-1.019656,-2.073276
348,0,25,0.011193,-0.889169,-0.900363,-2.962446
349,0,25,0.011754,-0.772949,-0.784703,-3.735395
350,0,25,0.012095,-0.661340,-0.673435,-4.396735
351,0,25,0.012242,-0.554949,-0.567191,-4.951684
352,0,25,0.012217,-0.454261,-0.466479,-5.405945
353,0,25,0.012045,-0.359652,-0.371698,-5.765597
354,0,25,0.011748,-0.271394,-0.283142,-6.036991
355,0,26,0.011345,-0.189668,-0.201013,-6.226659
356,0,26,0.754876,0.629453,-0.125424,-5.597206
357,0,26,0.736901,1.350109,0.613207,-4.247098
358,0,26,0.677220,1.934297,1.257077,-2.312801
359,0,26,0.620404,2.393124,1.772720,0.080324
360,0,26,0.566626,2.737784,2.171158,2.818108
361,0,26,0.515982,2.979385,2.463403,5.797493
362,0,26,0.468500,3.128811,2.660311,8.926305
363,0,26,0.424153,3.196602,2.772449,12.122907
364,0,26,0.382868,3.192863,2.809995,15.315770
365,0,27,0.344534,3.127188,2.782655,18.442958
366,0,27,0.309011,3.008613,2.699601,21.451570
367,0,27,0.276139,2.845568,2.569429,24.297138
368,0,27,0.258770,2.658894,2.400124,26.956032
369,0,27,0.242566,2.453341,2.210776,29.409373
370,0,27,0.227427,2.233264,2.005837,31.642638
371,0,27,0.213257,2.002625,1.789368,33.645263
372,0,27,0.199960,1.765003,1.565043,35.410265
373,0,27,0.187442,1.523605,1.336163,36.933871
374,0,27,0.175616,1.281284,1.105668,38.215155
375,0,27,0.164398,1.040550,0.876152,39.255705
376,0,27,0.153710,0.803591,0.649881,40.059296
377,0,28,0.143478,0.572292,0.428814,40.631588
378,0,28,0.008061,0.222680,0.214618,40.854268
379,0,28,0.012739,-0.091586,-0.104325,40.762682
380,0,28,0.014624,-0.374211,-0.388834,40.388471
381,0,28,0.016188,-0.626322,-0.642510,39.762149
382,0,28,0.017459,-0.849145,-0.866603,38.913005
383,0,28,0.018461,-1.043985,-1.062446,37.869020
384,0,28,0.019221,-1.212213,-1.231434,36.656807
385,0,28,0.019760,-1.355249,-1.375009,35.301558
386,0,28,0.020101,-1.474550,-1.494650,33.827008
387,0,28,0.020263,-1.571594,-1.591857,32.255414
388,0,29,0.020267,-1.647870,-1.668137,30.607544
389,0,29,0.020130,-1.704869,-1.724999,28.902675
390,0,29,0.019869,-1.744069,-1.763938,27.158606
391,0,29,0.017627,-1.768805,-1.786432,25.389801
392,0,29,0.015584,-1.780030,-1.795614,23.609771
393,0,29,-0.002497,-1.794947,-1.792450,21.814824
394,0,29,-0.022040,-1.814565,-1.792526,20.000259
395,0,29,-0.041228,-1.837948,-1.796720,18.162312
396,0,29,-0.060059,-1.864214,-1.804155,16.298097
397,0,29,-0.078531,-1.892541,-1.814010,14.405556
398,0,29,-0.096641,-1.922164,-1.825523,12.483392
399,0,29,-0.114385,-1.952374,-1.837989,10.531018
400,0,29,-0.131761,-1.982523,-1.850762,8.548496
401,0,29,-0.148767,-2.012020,-1.863253,6.536476
402,0,30,-0.165401,-2.040332,-1.874932,4.496143
403,0,30,-0.181662,-2.066985,-1.885323,2.429159
404,0,30,-0.197550,-2.091557,-1.894007,0.337602
405,0,30,-0.213065,-2.113685,-1.900620,-1.776084
406,0,30,-0.228210,-2.133058,-1.904849,-3.909142
407,0,30,-0.242985,-2.149417,-1.906432,-6.058559
408,0,30,-0.257396,-2.162553,-1.905157,-8.221112
409,0,30,-0.271445,-2.172303,-1.900858,-10.393415
410,0,30,-0.285137,-2.178551,-1.893414,-12.571967
411,0,30,-0.298478,-2.181224,-1.882746,-14.753191
412,0,30,-0.311476,-2.180287,-1.868812,-16.933478
413,0,30,-0.324135,-2.175745,-1.851610,-19.109223
414,0,31,-0.336465,-2.167635,-1.831170,-21.276858
415,0,31,0.700241,-1.107311,-1.807552,-22.384169
416,0,31,0.713091,-0.123913,-0.837004,-22.508082
417,0,31,0.696320,0.752680,0.056360,-21.755402
418,0,31,0.679437,1.525660,0.846223,-20.229742
419,0,31,0.662603,2.198863,1.536260,-18.030879
420,0,31,0.645956,2.776655,2.130699,-15.254224
421,0,31,0.629617,3.263839,2.634221,-11.990385
422,0,31,0.613687,3.665549,3.051861,-8.324836
423,0,31,0.598251,3.987173,3.388922,-4.337663
424,0,32,0.583377,4.234269,3.650892,-0.103394
425,0,32,0.569118,4.412493,3.843375,4.309099
426,0,32,0.555515,4.527534,3.972019,8.836633
427,0,32,0.521228,4.563690,4.042462,13.400322
428,0,32,0.489172,4.530218,4.041046,17.930540
429,0,32,0.459292,4.435986,3.976694,22.366526
430,0,32,0.431510,4.289418,3.857908,26.655944
431,0,32,0.405728,4.098456,3.692727,30.754400
432,0,32,0.381837,3.870528,3.488691,34.624927
433,0,32,0.359716,3.612533,3.252817,38.237461
434,0,32,0.339237,3.330830,2.991593,41.568291
435,0,33,0.320271,3.031237,2.710966,44.599528
436,0,33,0.302684,2.719035,2.416351,47.318563
437,0,33,0.286348,2.398983,2.112635,49.717546
438,0,33,0.271133,2.075329,1.804195,51.792875
439,0,33,0.256918,1.751832,1.494914,53.544707
440,0,33,0.243585,1.431788,1.188203,54.976495
441,0,33,0.231023,1.118047,0.887024,56.094543
442,0,33,0.219129,0.813048,0.593919,56.907590
443,0,33,0.207806,0.518840,0.311034,57.426430
444,0,33,0.196967,0.237116,0.040149,57.663547
445,0,33,0.186532,-0.030762,-0.217294,57.632785
446,0,33,0.176428,-0.283734,-0.460162,57.349051
447,0,34,0.166592,-0.521014,-0.687606,56.828037
448,0,34,0.156967,-0.742064,-0.899031,56.085973
449,0,34,0.147504,-0.946563,-1.094067,55.139410
450,0,34,0.166290,-1.106262,-1.272552,54.033148
451,0,34,0.184945,-1.224237,-1.409181,52.808912
452,0,34,0.203508,-1.303554,-1.507061,51.505358
453,0,34,0.222006,-1.347260,-1.569265,50.158098
454,0,34,0.240454,-1.358370,-1.598824,48.799729
455,0,34,0.258859,-1.339859,-1.598718,47.459869
456,0,34,0.277218,-1.294653,-1.571871,46.165216
457,0,34,0.295523,-1.225614,-1.521137,44.939602
458,0,35,0.313758,-1.135534,-1.449292,43.804068
459,0,35,-0.009636,-1.368664,-1.359027,42.435404
460,0,35,-0.010056,-1.570384,-1.560328,40.865021
461,0,35,-0.010373,-1.741984,-1.731611,39.123037
462,0,35,-0.010564,-1.884837,-1.874273,37.238200
463,0,35,-0.010613,-2.000389,-1.989776,35.237811
464,0,35,-0.010512,-2.090149,-2.079636,33.147663
465,0,35,-0.010257,-2.155674,-2.145417,30.991988
466,0,35,-0.009849,-2.198563,-2.188714,28.793425
467,0,35,-0.009293,-2.220439,-2.211147,26.572986
468,0,35,-0.008598,-2.222944,-2.214346,24.350042
469,0,35,-0.007775,-2.207722,-2.199947,22.142319
470,0,35,-0.006839,-2.176415,-2.169575,19.965905
471,0,35,-0.005805,-2.130645,-2.124841,17.835259
472,0,35,-0.004689,-2.072014,-2.067325,15.763245
473,0,36,-0.003509,-2.002086,-1.998577,13.761159
474,0,36,-0.002282,-1.922384,-1.920102,11.838775
475,0,36,-0.001027,-1.834382,-1.833355,10.004393
476,0,36,0.000239,-1.739496,-1.739735,8.264897
477,0,36,0.001500,-1.639079,-1.640579,6.625818
478,0,36,0.002740,-1.534418,-1.537158,5.091400
479,0,36,0.003944,-1.426726,-1.430670,3.664674
480,0,36,0.005098,-1.317141,-1.322239,2.347533
481,0,36,0.006191,-1.206721,-1.212912,1.140812
482,0,36,0.007211,-1.096445,-1.103656,0.044368
483,0,36,0.008150,-0.987206,-0.995356,-0.942839
484,0,36,0.009000,-0.879819,-0.888818,-1.822657
485,0,36,0.009754,-0.775011,-0.784765,-2.597668
486,0,36,0.010409,-0.673431,-0.683840,-3.271099
487,0,37,0.010961,-0.575644,-0.586605,-3.846743
488,0,37,0.011409,-0.482138,-0.493546,-4.328881
489,0,37,0.011752,-0.393322,-0.405073,-4.722203
490,0,37,0.011991,-0.309532,-0.321523,-5.031735
491,0,37,0.012128,-0.231034,-0.243163,-5.262770
492,0,37,0.012168,-0.158025,-0.170193,-5.420795
493,0,37,0.012113,-0.090639,-0.102752,-5.511435
494,0,37,0.011969,-0.028951,-0.040920,-5.540385
495,0,37,0.011741,0.027021,0.015280,-5.513364
496,0,37,0.011437,0.077309,0.065872,-5.436055
497,0,37,0.011063,0.121991,0.110929,-5.314063
498,0,37,0.010625,0.161188,0.150563,-5.152875
499,0,37,0.010132,0.195057,0.184925,-4.957818
500,0,38,0.009592,0.223790,0.214198,-4.734028
501,0,38,0.009010,0.247605,0.238594,-4.486424
502,0,38,0.008396,0.266746,0.258349,-4.219678
503,0,38,0.007757,0.281477,0.273719,-3.938201
504,0,38,0.007100,0.292077,0.284977,-3.646124
505,0,38,0.006432,0.298838,0.292406,-3.347286
506,0,38,0.005760,0.302060,0.296300,-3.045226
507,0,38,0.005090,0.302049,0.296959,-2.743177
508,0,38,0.004427,0.299111,0.294683,-2.444067
509,0,38,0.003778,0.293552,0.289773,-2.150515
510,0,38,0.003147,0.285674,0.282527,-1.864841
511,0,38,0.002539,0.275774,0.273236,-1.589067
512,0,38,0.001956,0.264139,0.262183,-1.324928
513,0,39,0.001404,0.251047,0.249644,-1.073880
514,0,39,0.000884,0.236764,0.235880,-0.837116
515,0,39,0.000399,0.221540,0.221141,-0.615576
516,0,39,-0.000050,0.205615,0.205665,-0.409961
517,0,39,-0.000460,0.189210,0.189670,-0.220751
518,0,39,-0.000832,0.172532,0.173364,-0.048219
519,0,39,-0.001165,0.155769,0.156934,0.107550
520,0,39,-0.001458,0.139096,0.140554,0.246646
521,0,39,-0.001713,0.122666,0.124379,0.369312
522,0,39,-0.001930,0.106620,0.108550,0.475932
523,0,39,-0.002110,0.091078,0.093188,0.567010
524,1,0,-0.002254,0.076147,0.078401,0.643156
Got lapFinished at time 524
525,1,0,-0.002364,0.061915,0.064279,0.705072
526,1,0,-0.002442,0.048458,0.050900,0.753530
527,1,0,-0.002490,0.035835,0.038324,0.789364
528,1,0,-0.002509,0.024091,0.026600,0.813455
529,1,0,-0.002502,0.013259,0.015761,0.826715
530,1,0,-0.002472,0.003361,0.005832,0.830075
531,1,0,-0.002420,-0.005596,-0.003176,0.824480
532,1,0,-0.002349,-0.013611,-0.011262,0.810869
533,1,0,-0.002261,-0.020695,-0.018433,0.790174
534,1,0,-0.002159,-0.026866,-0.024707,0.763308
535,1,0,-0.002045,-0.032151,-0.030106,0.731157
536,1,1,-0.001921,-0.036582,-0.034661,0.694576
537,1,1,-0.001789,-0.040196,-0.038407,0.654379
538,1,1,-0.001651,-0.043037,-0.041386,0.611342
539,1,1,-0.001510,-0.045151,-0.043641,0.566191
540,1,1,-0.001366,-0.046587,-0.045221,0.519605
541,1,1,-0.001221,-0.047395,-0.046174,0.472209
542,1,1,-0.001078,-0.047631,-0.046553,0.424579
543,1,1,-0.000936,-0.047346,-0.046409,0.377233
544,1,1,-0.000799,-0.046594,-0.045795,0.330639
545,1,1,-0.000666,-0.045430,-0.044764,0.285209
546,1,1,-0.000538,-0.043905,-0.043366,0.241305
547,1,1,-0.000417,-0.042070,-0.041653,0.199234
548,1,2,-0.000303,-0.039976,-0.039673,0.159258
549,1,2,-0.000196,-0.037669,-0.037473,0.121590
550,1,2,-0.000097,-0.035194,-0.035096,0.086396
551,1,2,-0.000007,-0.032593,-0.032586,0.053803
552,1,2,0.000075,-0.029907,-0.029982,0.023896
553,1,2,0.000149,-0.027171,-0.027319,-0.003274
554,1,2,0.000214,-0.024419,-0.024633,-0.027693
555,1,2,0.000271,-0.021681,-0.021952,-0.049374
556,1,2,0.000320,-0.018986,-0.019305,-0.068360
557,1,2,0.000361,-0.016356,-0.016717,-0.084716
558,1,2,0.000394,-0.013814,-0.014208,-0.098530
559,1,3,0.000420,-0.011377,-0.011797,-0.109907
560,1,3,0.000439,-0.009061,-0.009501,-0.118968
561,1,3,0.000452,-0.006879,-0.007331,-0.125847
562,1,3,0.000459,-0.004840,-0.005299,-0.130688
563,1,3,0.000443,-0.002969,-0.003412,-0.133656
564,1,3,0.000423,-0.001269,-0.001692,-0.134925
565,1,3,0.000399,0.000259,-0.000139,-0.134666
566,1,3,0.000371,0.001616,0.001245,-0.133050
567,1,3,0.000342,0.002807,0.002465,-0.130243
568,1,3,0.000312,0.003835,0.003524,-0.126407
569,1,3,0.000281,0.004709,0.004429,-0.121698
570,1,3,0.000250,0.005436,0.005187,-0.116261
571,1,3,0.000220,0.006025,0.005806,-0.110236
572,1,4,0.000191,0.006486,0.006295,-0.103750
573,1,4,0.968917,0.975581,0.006664,0.871831
574,1,4,0.917693,1.796494,0.878801,2.668325
575,1,4,0.867716,2.478022,1.610306,5.146347
576,1,4,0.800503,3.010710,2.210207,8.157057
577,1,4,0.736691,3.407733,2.671042,11.564790
578,1,4,0.676467,3.682249,3.005782,15.247039
579,1,4,0.619928,3.847216,3.227288,19.094254
580,1,4,0.567093,3.915234,3.348141,23.009488
581,1,4,0.517915,3.898419,3.380504,26.907907
582,1,5,0.472297,3.808302,3.336006,30.716210
583,1,5,0.430096,3.655759,3.225663,34.371969
584,1,5,0.391139,3.450951,3.059812,37.822919
585,1,5,0.368961,3.217026,2.848066,41.039945
586,1,5,0.348364,2.960016,2.611652,43.999961
587,1,5,0.329227,2.685441,2.356214,46.685402
588,1,5,0.311425,2.398323,2.086897,49.083725
589,1,5,0.294837,2.103187,1.808350,51.186912
590,1,5,0.279342,1.804082,1.524740,52.990994
591,1,5,0.264822,1.504594,1.239772,54.495588
592,1,5,0.251168,1.207870,0.956702,55.703458
593,1,6,0.238273,0.916640,0.678366,56.620098
594,1,6,0.226040,0.633240,0.407200,57.253338
595,1,6,0.214376,0.359641,0.145265,57.612979
596,1,6,0.234006,0.128282,-0.105723,57.741261
597,1,6,0.253316,-0.063327,-0.316643,57.677934
598,1,6,0.272353,-0.217701,-0.490054,57.460234
599,1,6,0.291149,-0.337366,-0.628515,57.122867
600,1,6,0.309727,-0.424855,-0.734582,56.698012
601,1,6,0.328103,-0.482688,-0.810791,56.215324
602,1,6,0.346285,-0.513369,-0.859654,55.701955
603,1,6,0.364275,-0.519372,-0.883647,55.182582
604,1,7,0.382070,-0.503129,-0.885200,54.679453
605,1,7,0.399664,-0.467022,-0.866686,54.212431
606,1,7,0.417044,-0.413372,-0.830416,53.799059
607,1,7,0.434200,-0.344428,-0.778628,53.454631
608,1,7,0.451116,-0.262362,-0.713478,53.192269
609,1,7,0.467776,-0.169260,-0.637036,53.023009
610,1,7,0.484165,-0.067111,-0.551276,52.955898
611,1,7,0.500267,0.042194,-0.458072,52.998092
612,1,7,0.516065,0.156871,-0.359194,53.154963
613,1,7,0.531546,0.275244,-0.256302,53.430207
614,1,8,0.546696,0.395753,-0.150942,53.825961
615,1,8,-0.069044,-0.113593,-0.044549,53.712368
616,1,8,-0.067673,-0.573601,-0.505928,53.138767
617,1,8,-0.066001,-0.985085,-0.919084,52.153682
618,1,8,-0.064026,-1.349144,-1.285118,50.804538
619,1,8,-0.061753,-1.667135,-1.605382,49.137403
620,1,8,-0.059194,-1.940650,-1.881456,47.196753
621,1,8,-0.056367,-2.171483,-2.115115,45.025271
622,1,8,-0.053295,-2.361605,-2.308310,42.663665
623,1,8,-0.050005,-2.513140,-2.463134,40.150526
624,1,8,-0.046526,-2.628329,-2.581803,37.522197
625,1,9,-0.042890,-2.709516,-2.666625,34.812681
626,1,9,-0.039132,-2.759112,-2.719980,32.053569
627,1,9,-0.035285,-2.779581,-2.744296,29.273988
628,1,9,-0.031384,-2.773409,-2.742025,26.500579
629,1,9,-0.027465,-2.743088,-2.715623,23.757491
630,1,9,-0.023559,-2.691092,-2.667533,21.066399
631,1,9,-0.019700,-2.619864,-2.600164,18.446535
632,1,9,-0.015918,-2.531793,-2.515876,15.914741
633,1,9,-0.012241,-2.429204,-2.416963,13.485537
634,1,9,-0.008695,-2.314339,-2.305644,11.171198
635,1,9,-0.005305,-2.189351,-2.184047,8.981847
636,1,9,-0.002090,-2.056290,-2.054200,6.925557
637,1,9,0.000932,-1.917093,-1.918025,5.008464
638,1,10,0.003744,-1.773581,-1.777325,3.234883
639,1,10,0.006335,-1.627451,-1.633787,1.607431
640,1,10,0.008697,-1.480271,-1.488968,0.127160
641,1,10,0.010821,-1.333479,-1.344300,-1.206319
642,1,10,0.012704,-1.188381,-1.201085,-2.394700
643,1,10,0.014346,-1.046149,-1.060495,-3.440849
644,1,10,0.015747,-0.907828,-0.923574,-4.348677
645,1,10,0.016910,-0.774328,-0.791238,-5.123005
646,1,10,0.017843,-0.646438,-0.664280,-5.769443
647,1,10,0.018551,-0.524821,-0.543371,-6.294263
648,1,10,0.019044,-0.410024,-0.429068,-6.704287
649,1,10,0.019333,-0.302482,-0.321815,-7.006769
650,1,10,0.019430,-0.202522,-0.221951,-7.209291
651,1,11,0.019347,-0.110371,-0.129719,-7.319662
652,1,11,0.019100,-0.026165,-0.045264,-7.345826
653,1,11,0.018701,0.050050,0.031349,-7.295776
654,1,11,0.018167,0.118306,0.100139,-7.177470
655,1,11,0.017511,0.178705,0.161194,-6.998765
656,1,11,0.016751,0.231416,0.214666,-6.767349
657,1,11,0.015900,0.276665,0.260765,-6.490684
658,1,11,0.014973,0.314727,0.299754,-6.175957
659,1,11,0.013986,0.345920,0.331934,-5.830037
660,1,11,0.012952,0.370600,0.357648,-5.459437
661,1,12,0.011885,0.389150,0.377265,-5.070287
662,1,12,0.010797,0.401977,0.391181,-4.668310
663,1,12,0.009700,0.409507,0.399807,-4.258803
664,1,12,0.008606,0.412175,0.403569,-3.846628
665,1,12,0.007525,0.410423,0.402898,-3.436205
666,1,12,0.006466,0.404696,0.398231,-3.031509
667,1,12,0.005437,0.395435,0.389998,-2.636074
668,1,12,0.004446,0.383073,0.378628,-2.253000
669,1,12,0.003498,0.368035,0.364537,-1.884966
670,1,12,0.002601,0.350730,0.348129,-1.534236
671,1,12,0.001758,0.331552,0.329794,-1.202684
672,1,12,0.000972,0.310875,0.309903,-0.891809
673,1,13,0.000247,0.289054,0.288808,-0.602754
674,1,13,-0.000416,0.266421,0.266837,-0.336333
675,1,13,-0.001016,0.243284,0.244300,-0.093050
676,1,13,-0.001563,0.219914,0.221478,0.126865
677,1,13,-0.001991,0.196629,0.198621,0.323494
678,1,13,-0.002312,0.173703,0.176015,0.497197
679,1,13,-0.002536,0.151370,0.153907,0.648567
680,1,13,-0.002677,0.129827,0.132504,0.778395
681,1,13,-0.002744,0.109236,0.111980,0.887631
682,1,13,-0.002749,0.089725,0.092475,0.977356
683,1,13,-0.002702,0.071394,0.074096,1.048750
684,1,13,-0.002612,0.054312,0.056924,1.103062
685,1,13,-0.002487,0.038528,0.041015,1.141591
686,1,14,-0.002336,0.024067,0.026403,1.165658
687,1,14,-0.823327,-0.810229,0.013098,0.355428
688,1,14,-0.778783,-1.516731,-0.737949,-1.161303
689,1,14,-0.735546,-2.103270,-1.367724,-3.264572
690,1,14,-0.693860,-2.578093,-1.884233,-5.842665
691,1,14,-0.653909,-2.949709,-2.295799,-8.792374
692,1,14,-0.615823,-3.226741,-2.610918,-12.019115
693,1,14,-0.579686,-3.417810,-2.838124,-15.436925
694,1,14,-0.545538,-3.531424,-2.985885,-18.968348
695,1,14,-0.513388,-3.575892,-3.062504,-22.544240
696,1,15,-0.483212,-3.559252,-3.076040,-26.103492
697,1,15,-0.454963,-3.489207,-3.034245,-29.592700
698,1,15,-0.428572,-3.373083,-2.944511,-32.965783
699,1,15,-0.403957,-3.217786,-2.813829,-36.183569
700,1,15,-0.381021,-3.029785,-2.648764,-39.213354
701,1,15,-0.359660,-2.815090,-2.455430,-42.028444
702,1,15,-0.339763,-2.579244,-2.239481,-44.607687
703,1,15,-0.321217,-2.327323,-2.006106,-46.935010
704,1,15,-0.303907,-2.063939,-1.760033,-48.998949
705,1,15,-0.287719,-1.793252,-1.505533,-50.792202
706,1,15,-0.272543,-1.518978,-1.246435,-52.311180
707,1,16,-0.258272,-1.244411,-0.986139,-53.555591
708,1,16,-0.244802,-0.972438,-0.727636,-54.528029
709,1,16,-0.232038,-0.705565,-0.473527,-55.233594
710,1,16,-0.251728,-0.477777,-0.226048,-55.711371
711,1,16,-0.271074,-0.286821,-0.015747,-55.998191
712,1,16,-0.290116,-0.130419,0.159697,-56.128610
713,1,16,-0.308885,-0.006276,0.302609,-56.134886
714,1,16,-0.327405,0.087911,0.415316,-56.046975
715,1,16,-0.345689,0.154443,0.500132,-55.892532
716,1,16,-0.363747,0.195603,0.559351,-55.696929
717,1,16,-0.381582,0.213655,0.595237,-55.483274
718,1,17,-0.399192,0.210824,0.610016,-55.272450
719,1,17,-0.416572,0.189294,0.605866,-55.083156
720,1,17,-0.433714,0.151194,0.584908,-54.931962
721,1,17,-0.450608,0.098590,0.549198,-54.833372
722,1,17,-0.467242,0.033478,0.500721,-54.799893
723,1,17,-0.483603,-0.042223,0.441381,-54.842116
724,1,17,-0.499679,-0.126680,0.372999,-54.968796
725,1,17,-0.515455,-0.218151,0.297304,-55.186947
726,1,17,-0.530920,-0.314990,0.215930,-55.501937
727,1,17,-0.546061,-0.415650,0.130411,-55.917587
728,1,17,-0.560867,-0.518687,0.042180,-56.436274
729,1,18,-0.575329,-0.622766,-0.047437,-57.059040
730,1,18,0.080508,-0.056710,-0.137217,-57.115750
731,1,18,0.078975,0.455879,0.376904,-56.659871
732,1,18,0.073157,0.911816,0.838659,-55.748055
733,1,18,0.067208,1.312791,1.245584,-54.435263
734,1,18,0.061215,1.660837,1.599623,-52.774426
735,1,18,0.055256,1.958274,1.903018,-50.816152
736,1,18,0.049400,2.207655,2.158255,-48.608497
737,1,18,0.043701,2.411711,2.368010,-46.196786
738,1,18,0.038209,2.573313,2.535104,-43.623473
739,1,18,0.032961,2.695419,2.662458,-40.928054
740,1,18,0.027989,2.781042,2.753053,-38.147012
741,1,18,0.023316,2.833215,2.809899,-35.313797
742,1,18,0.018958,2.854954,2.835996,-32.458843
743,1,19,0.014927,2.849240,2.834312,-29.609603
744,1,19,0.593646,3.401403,2.807757,-26.208200
745,1,19,0.578435,3.861770,3.283335,-22.346430
746,1,19,0.540719,4.212874,3.672155,-18.133556
747,1,19,0.505086,4.464270,3.959184,-13.669286
748,1,19,0.471574,4.625419,4.153845,-9.043867
749,1,19,0.440184,4.705581,4.265397,-4.338285
750,1,19,0.410886,4.713738,4.302852,0.375453
751,1,19,0.383624,4.658526,4.274902,5.033979
752,1,19,0.358322,4.548180,4.189858,9.582159
753,1,19,0.334886,4.390493,4.055607,13.972651
754,1,20,0.313211,4.192788,3.879577,18.165440
755,1,20,0.293182,3.961897,3.668715,22.127337
756,1,20,0.274680,3.704147,3.429467,25.831484
757,1,20,0.274636,3.442413,3.167777,29.273897
758,1,20,0.274741,3.179176,2.904436,32.453073
759,1,20,0.274972,2.916677,2.641704,35.369750
760,1,20,0.275312,2.656923,2.381611,38.026672
761,1,20,0.275740,2.401697,2.125957,40.428369
762,1,20,0.276239,2.152567,1.876327,42.580936
763,1,20,0.276794,1.910891,1.634097,44.491827
764,1,20,0.277390,1.677835,1.400445,46.169662
765,1,21,0.278012,1.454375,1.176363,47.624038
766,1,21,0.278649,1.241314,0.962665,48.865352
767,1,21,0.279290,1.039293,0.760003,49.904645
768,1,21,0.279925,0.848798,0.568874,50.753443
769,1,21,0.280545,0.670178,0.389634,51.423622
770,1,21,0.281142,0.503651,0.222510,51.927273
771,1,21,0.281710,0.349319,0.067609,52.276592
772,1,21,0.282244,0.207176,-0.075067,52.483768
773,1,21,0.282738,0.077122,-0.205616,52.560890
774,1,21,0.283190,-0.041029,-0.324218,52.519862
775,1,21,0.283596,-0.147537,-0.431132,52.372325
776,1,21,0.283954,-0.242729,-0.526682,52.129596
777,1,22,0.284262,-0.326986,-0.611248,51.802611
778,1,22,0.284521,-0.400739,-0.685259,51.401872
779,1,22,0.284729,-0.464456,-0.749184,50.937416
780,1,22,0.303344,-0.500180,-0.803524,50.437236
781,1,22,0.321781,-0.510412,-0.832192,49.926825
782,1,22,0.340038,-0.497611,-0.837650,49.429214
783,1,22,0.358113,-0.464189,-0.822301,48.965025
784,1,22,0.375994,-0.412494,-0.788489,48.552530
785,1,22,0.393672,-0.344810,-0.738483,48.207720
786,1,22,0.411132,-0.263341,-0.674473,47.944379
787,1,22,0.428359,-0.170206,-0.598565,47.774173
788,1,23,0.445334,-0.067434,-0.512768,47.706739
789,1,23,-0.041827,-0.460824,-0.418997,47.245916
790,1,23,-0.041066,-0.813608,-0.772542,46.432308
791,1,23,-0.040156,-1.126748,-1.086592,45.305560
792,1,23,-0.039079,-1.401394,-1.362316,43.904165
793,1,23,-0.037821,-1.638868,-1.601046,42.265298
794,1,23,-0.036380,-1.840643,-1.804262,40.424655
795,1,23,-0.034757,-2.008326,-1.973568,38.416329
796,1,23,-0.032959,-2.143637,-2.110678,36.272692
797,1,23,-0.030997,-2.248392,-2.217396,34.024300
798,1,24,-0.028885,-2.324483,-2.295598,31.699817
799,1,24,-0.026643,-2.373860,-2.347217,29.325957
800,1,24,-0.024290,-2.398512,-2.374222,26.927445
801,1,24,-0.021848,-2.400454,-2.378606,24.526991
802,1,24,-0.019341,-2.381705,-2.362364,22.145287
803,1,24,-0.016792,-2.344278,-2.327487,19.801008
804,1,24,-0.014225,-2.290165,-2.275940,17.510843
805,1,24,-0.011663,-2.221319,-2.209656,15.289524
806,1,24,-0.009130,-2.139649,-2.130519,13.149875
807,1,24,-0.006646,-2.047001,-2.040355,11.102874
808,1,24,-0.004233,-1.945158,-1.940925,9.157715
809,1,24,-0.001909,-1.835823,-1.833914,7.321892
810,1,25,0.000310,-1.720614,-1.720923,5.601279
811,1,25,0.002407,-1.601060,-1.603467,4.000219
812,1,25,0.004370,-1.478594,-1.482964,2.521625
813,1,25,0.006361,-1.354375,-1.360736,1.167250
814,1,25,0.008009,-1.229841,-1.237849,-0.062591
815,1,25,0.009337,-1.106274,-1.115611,-1.168865
816,1,25,0.010373,-0.984805,-0.995177,-2.153669
817,1,25,0.011142,-0.866416,-0.877558,-3.020085
818,1,25,0.011671,-0.751950,-0.763622,-3.772035
819,1,25,0.011986,-0.642119,-0.654105,-4.414154
820,1,25,0.012110,-0.537507,-0.549617,-4.951661
821,1,25,0.012069,-0.438581,-0.450650,-5.390242
822,1,25,0.011884,-0.345702,-0.357586,-5.735944
823,1,26,0.011577,-0.259128,-0.270705,-5.995072
824,1,26,0.764818,0.574623,-0.190195,-5.420449
825,1,26,0.746568,1.308691,0.562124,-4.111757
826,1,26,0.686433,1.904909,1.218476,-2.206849
827,1,26,0.629152,2.374408,1.745256,0.167560
828,1,26,0.574908,2.728427,2.153519,2.895987
829,1,26,0.523803,2.978130,2.454328,5.874117
830,1,26,0.475871,3.134468,2.658597,9.008585
831,1,26,0.431091,3.208056,2.776965,12.216641
832,1,26,0.389392,3.209078,2.819686,15.425719
833,1,26,0.350668,3.147213,2.796545,18.572932
834,1,27,0.314780,3.031579,2.716799,21.604511
835,1,27,0.281568,2.870692,2.589124,24.475203
836,1,27,0.250856,2.672445,2.421589,27.147647
837,1,27,0.235081,2.456717,2.221636,29.604364
838,1,27,0.220346,2.227783,2.007438,31.832147
839,1,27,0.206552,1.989525,1.782972,33.821672
840,1,27,0.193604,1.745435,1.551831,35.567107
841,1,27,0.181409,1.498639,1.317229,37.065746
842,1,27,0.169880,1.251901,1.082022,38.317647
843,1,27,0.158932,1.007650,0.848718,39.325297
844,1,27,0.148489,0.767991,0.619502,40.093288
845,1,28,0.138478,0.534730,0.396252,40.628018
846,1,28,0.009226,0.189784,0.180558,40.817802
847,1,28,0.013844,-0.120061,-0.133905,40.697741
848,1,28,0.015666,-0.398523,-0.414189,40.299218
849,1,28,0.017166,-0.646738,-0.663904,39.652480
850,1,28,0.018372,-0.865936,-0.884308,38.786544
851,1,28,0.019311,-1.057425,-1.076736,37.729120
852,1,28,0.020007,-1.222574,-1.242581,36.506546
853,1,28,0.020484,-1.362802,-1.383285,35.143744
854,1,28,0.020763,-1.479557,-1.500320,33.664187
855,1,28,0.020867,-1.574312,-1.595179,32.089875
856,1,29,0.020814,-1.648548,-1.669363,30.441326
857,1,29,0.020623,-1.703744,-1.724368,28.737582
858,1,29,0.020311,-1.741369,-1.761680,26.996213
859,1,29,0.018031,-1.764732,-1.782764,25.231481
860,1,29,0.015953,-1.774777,-1.790731,23.456704
861,1,29,0.001757,-1.784779,-1.786536,21.671925
862,1,29,-0.017851,-1.800077,-1.782226,19.871848
863,1,29,-0.037105,-1.819714,-1.782609,18.052134
864,1,29,-0.056002,-1.842783,-1.786781,16.209351
865,1,29,-0.074541,-1.868437,-1.793896,14.340914
866,1,29,-0.092718,-1.895881,-1.803163,12.445033
867,1,29,-0.110533,-1.924383,-1.813850,10.520650
868,1,29,-0.127981,-1.953263,-1.825282,8.567387
869,1,29,-0.145061,-1.981903,-1.836842,6.585483
870,1,30,-0.161772,-2.009740,-1.847968,4.575743
871,1,30,-0.178112,-2.036269,-1.858157,2.539474
872,1,30,-0.194080,-2.061040,-1.866960,0.478434
873,1,30,-0.209678,-2.083660,-1.873982,-1.605226
874,1,30,-0.224906,-2.103788,-1.878882,-3.709014
875,1,30,-0.239766,-2.121136,-1.881370,-5.830150
876,1,30,-0.254262,-2.135466,-1.881205,-7.965617
877,1,30,-0.268396,-2.146590,-1.878194,-10.112206
878,1,30,-0.282174,-2.154362,-1.872188,-12.266569
879,1,30,-0.295601,-2.158685,-1.863085,-14.425254
880,1,30,-0.308682,-2.159500,-1.850817,-16.584753
881,1,30,-0.321425,-2.156785,-1.835360,-18.741539
882,1,30,-0.333837,-2.150559,-1.816721,-20.892098
883,1,31,-0.345926,-2.140867,-1.794941,-23.032965
884,1,31,0.717519,-1.052571,-1.770090,-24.085536
885,1,31,0.730022,-0.044545,-0.774567,-24.130081
886,1,31,0.712564,0.853115,0.140551,-23.276967
887,1,31,0.694976,1.643754,0.948779,-21.633212
888,1,31,0.677428,2.331384,1.653956,-19.301829
889,1,31,0.660068,2.920562,2.260494,-16.381267
890,1,31,0.643024,3.416293,2.773270,-12.964974
891,1,31,0.626402,3.823926,3.197523,-9.141048
892,1,31,0.610294,4.149065,3.538771,-4.991983
893,1,32,0.594771,4.397487,3.802716,-0.594496
894,1,32,0.579890,4.575068,3.995178,3.980571
895,1,32,0.565693,4.687713,4.122020,8.668284
896,1,32,0.530714,4.719802,4.189087,13.388086
897,1,32,0.498026,4.680835,4.182809,18.068921
898,1,32,0.467573,4.579914,4.112341,22.648835
899,1,32,0.439274,4.425680,3.986406,27.074515
900,1,32,0.413032,4.226277,3.813246,31.300792
901,1,32,0.388731,3.989322,3.600591,35.290114
902,1,32,0.366249,3.721882,3.355634,39.011996
903,1,32,0.345454,3.430473,3.085018,42.442469
904,1,33,0.326213,3.121049,2.794835,45.563518
905,1,33,0.308390,2.799016,2.490626,48.362534
906,1,33,0.291851,2.469239,2.177388,50.831773
907,1,33,0.276464,2.136060,1.859596,52.967832
908,1,33,0.262103,1.803318,1.541215,54.771151
909,1,33,0.248647,1.474374,1.225728,56.245525
910,1,33,0.235982,1.152135,0.916153,57.397660
911,1,33,0.224001,0.839081,0.615080,58.236740
912,1,33,0.212606,0.537296,0.324690,58.774036
913,1,33,0.201706,0.248496,0.046791,59.022532
914,1,33,0.191218,-0.025941,-0.217159,58.996591
915,1,34,0.181070,-0.284946,-0.466016,58.711645
916,1,34,0.171194,-0.527732,-0.698926,58.183913
917,1,34,0.161532,-0.753764,-0.915296,57.430150
918,1,34,0.180484,-0.934282,-1.114767,56.495867
919,1,34,0.199264,-1.072316,-1.271580,55.423551
920,1,34,0.217913,-1.170891,-1.388804,54.252660
921,1,34,0.236461,-1.233017,-1.469478,53.019643
922,1,34,0.254926,-1.261684,-1.516611,51.757959
923,1,34,0.273318,-1.259846,-1.533163,50.498113
924,1,34,0.291635,-1.230410,-1.522046,49.267703
925,1,34,0.309873,-1.176232,-1.486105,48.091471
926,1,34,0.328020,-1.100096,-1.428116,46.991375
927,1,35,0.346058,-1.004714,-1.350773,45.986660
928,1,35,-0.017008,-1.273686,-1.256678,44.712974
929,1,35,-0.017086,-1.508304,-1.491217,43.204670
930,1,35,-0.017056,-1.709877,-1.692821,41.494794
931,1,35,-0.016896,-1.879820,-1.862924,39.614974
932,1,35,-0.016589,-2.019638,-2.003049,37.595336
933,1,35,-0.016129,-2.130915,-2.114786,35.464421
934,1,35,-0.015511,-2.215300,-2.199789,33.249121
935,1,35,-0.014740,-2.274493,-2.259753,30.974628
936,1,35,-0.013820,-2.310232,-2.296412,28.664397
937,1,35,-0.012763,-2.324281,-2.311518,26.340116
938,1,35,-0.011581,-2.318416,-2.306836,24.021700
939,1,35,-0.010289,-2.294415,-2.284126,21.727285
940,1,35,-0.008906,-2.254042,-2.245136,19.473242
941,1,35,-0.007448,-2.199041,-2.191593,17.274202
942,1,36,-0.005935,-2.131121,-2.125186,15.143081
943,1,36,-0.004386,-2.051951,-2.047565,13.091130
944,1,36,-0.002820,-1.963149,-1.960329,11.127981
945,1,36,-0.001255,-1.866273,-1.865018,9.261708
946,1,36,0.000290,-1.762815,-1.763105,7.498893
947,1,36,0.001800,-1.654197,-1.655996,5.844696
948,1,36,0.003257,-1.541761,-1.545019,4.302935
949,1,36,0.004649,-1.426771,-1.431421,2.876163
950,1,36,0.005962,-1.310404,-1.316366,1.565760
951,1,36,0.007186,-1.193748,-1.200935,0.372011
952,1,36,0.008311,-1.077806,-1.086117,-0.705795
953,1,36,0.009329,-0.963486,-0.972815,-1.669281
954,1,36,0.010234,-0.851610,-0.861844,-2.520891
955,1,37,0.011022,-0.742908,-0.753930,-3.263799
956,1,37,0.011690,-0.638020,-0.649710,-3.901819
957,1,37,0.012237,-0.537502,-0.549739,-4.439321
958,1,37,0.012663,-0.441825,-0.454488,-4.881146
959,1,37,0.012970,-0.351378,-0.364348,-5.232524
960,1,37,0.013160,-0.266471,-0.279631,-5.498995
961,1,37,0.013238,-0.187342,-0.200580,-5.686337
962,1,37,0.013209,-0.114156,-0.127365,-5.800492
963,1,37,0.013078,-0.047014,-0.060093,-5.847507
964,1,37,0.012853,0.014044,0.001191,-5.833463
965,1,37,0.012540,0.069035,0.056496,-5.764428
966,1,37,0.012147,0.118030,0.105883,-5.646398
967,1,37,0.011683,0.161143,0.149460,-5.485254
968,1,38,0.011156,0.198533,0.187377,-5.286721
969,1,38,0.010574,0.230393,0.219819,-5.056328
970,1,38,0.009947,0.256951,0.247004,-4.799377
971,1,38,0.009282,0.278460,0.269178,-4.520917
972,1,38,0.008588,0.295197,0.286609,-4.225720
973,1,38,0.007873,0.307457,0.299584,-3.918262
974,1,38,0.007145,0.315550,0.308405,-3.602712
975,1,38,0.006412,0.319793,0.313382,-3.282919
976,1,38,0.005679,0.320514,0.314834,-2.962405
977,1,38,0.004955,0.318039,0.313084,-2.644366
978,1,38,0.004245,0.312698,0.308454,-2.331668
979,1,38,0.003553,0.304815,0.301261,-2.026853
980,1,38,0.002886,0.294707,0.291821,-1.732146
981,1,39,0.002248,0.282685,0.280438,-1.449461
982,1,39,0.001641,0.269049,0.267408,-1.180412
983,1,39,0.001070,0.254085,0.253015,-0.926327
984,1,39,0.000536,0.238066,0.237529,-0.688261
985,1,39,0.000043,0.221249,0.221207,-0.467012
986,1,39,-0.000410,0.203877,0.204286,-0.263135
987,1,39,-0.000820,0.186172,0.186992,-0.076964
988,1,39,-0.001187,0.168341,0.169528,0.091377
989,1,39,-0.001512,0.150572,0.152084,0.241949
990,1,39,-0.001795,0.133034,0.134829,0.374983
991,1,39,-0.002036,0.115880,0.117916,0.490863
992,2,0,-0.002236,0.099244,0.101480,0.590107
Got lapFinished at time 992
993,2,0,-0.002398,0.083240,0.085638,0.673347
994,2,0,-0.002523,0.067967,0.070490,0.741314
995,2,0,-0.002612,0.053508,0.056120,0.794822
996,2,0,-0.002668,0.039930,0.042598,0.834752
997,2,0,-0.002693,0.027282,0.029976,0.862034
998,2,0,-0.002690,0.015604,0.018294,0.877638
999,2,0,-0.002660,0.004918,0.007578,0.882555
1000,2,0,-0.002608,-0.004764,-0.002156,0.877792
1001,2,0,-0.002534,-0.013440,-0.010907,0.864351
1002,2,0,-0.002442,-0.021122,-0.018680,0.843230
1003,2,0,-0.002334,-0.027826,-0.025492,0.815404
1004,2,1,-0.002212,-0.033580,-0.031367,0.781824
1005,2,1,-0.002080,-0.038417,-0.036337,0.743407
1006,2,1,-0.001939,-0.042378,-0.040439,0.701029
1007,2,1,-0.001791,-0.045507,-0.043716,0.655523
1008,2,1,-0.001639,-0.047853,-0.046214,0.607670
1009,2,1,-0.001484,-0.049468,-0.047984,0.558202
1010,2,1,-0.001329,-0.050408,-0.049079,0.507794
1011,2,1,-0.001174,-0.050728,-0.049554,0.457066
1012,2,1,-0.001022,-0.050486,-0.049464,0.406580
1013,2,1,-0.000874,-0.049739,-0.048865,0.356841
1014,2,1,-0.000730,-0.048544,-0.047814,0.308297
1015,2,1,-0.000592,-0.046959,-0.046366,0.261338
1016,2,2,-0.000461,-0.045036,-0.044575,0.216302
1017,2,2,-0.000338,-0.042831,-0.042493,0.173472
1018,2,2,-0.000222,-0.040392,-0.040170,0.133079
1019,2,2,-0.000115,-0.037769,-0.037654,0.095310
1020,2,2,-0.000017,-0.035008,-0.034991,0.060302
1021,2,2,0.000072,-0.032150,-0.032222,0.028152
1022,2,2,0.000152,-0.029236,-0.029387,-0.001083
1023,2,2,0.000223,-0.026300,-0.026523,-0.027384
1024,2,2,0.000285,-0.023378,-0.023662,-0.050762
1025,2,2,0.000338,-0.020497,-0.020834,-0.071258
1026,2,2,0.000382,-0.017684,-0.018066,-0.088942
1027,2,2,0.000419,-0.014962,-0.015381,-0.103904
1028,2,3,0.000447,-0.012352,-0.012799,-0.116256
1029,2,3,0.000469,-0.009869,-0.010337,-0.126125
1030,2,3,0.000483,-0.007527,-0.008010,-0.133651
1031,2,3,0.000474,-0.005354,-0.005828,-0.139006
1032,2,3,0.000458,-0.003359,-0.003817,-0.142365
1033,2,3,0.000437,-0.001544,-0.001980,-0.143908
1034,2,3,0.000411,0.000090,-0.000321,-0.143818
1035,2,3,0.000383,0.001543,0.001160,-0.142275
1036,2,3,0.000353,0.002820,0.002467,-0.139455
1037,2,3,0.000321,0.003926,0.003605,-0.135529
1038,2,3,0.000289,0.004868,0.004579,-0.130660
1039,2,3,0.000257,0.005655,0.005398,-0.125005
1040,2,4,0.000226,0.006296,0.006070,-0.118709
1041,2,4,0.971428,0.978032,0.006604,0.859323
1042,2,4,0.920085,1.801204,0.881119,2.660527
1043,2,4,0.850732,2.465371,1.614639,5.125898
1044,2,4,0.784488,2.983368,2.198880,8.109266
1045,2,4,0.721631,3.368219,2.646587,11.477485
1046,2,4,0.662336,3.632913,2.970577,15.110398
1047,2,4,0.606688,3.790228,3.183541,18.900626
1048,2,4,0.554698,3.852575,3.297877,22.753202
1049,2,4,0.506316,3.831879,3.325563,26.585081
1050,2,5,0.461439,3.739481,3.278042,30.324562
1051,2,5,0.419922,3.586067,3.166145,33.910629
1052,2,5,0.381592,3.381618,3.000026,37.292247
1053,2,5,0.359902,3.149029,2.789127,40.441277
1054,2,5,0.339752,2.894186,2.554434,43.335463
1055,2,5,0.321020,2.622479,2.301458,45.957941
1056,2,5,0.303586,2.338801,2.035215,48.296742
1057,2,5,0.287328,2.047564,1.760236,50.344306
1058,2,5,0.272128,1.752710,1.480582,52.097016
1059,2,5,0.257873,1.457730,1.199857,53.554745
1060,2,5,0.244454,1.165683,0.921229,54.720429
1061,2,6,0.231769,0.879223,0.647454,55.599651
1062,2,6,0.219720,0.600618,0.380897,56.200269
1063,2,6,0.208220,0.331779,0.123559,56.532048
1064,2,6,0.227895,0.104994,-0.122901,56.637042
1065,2,6,0.247253,-0.082242,-0.329496,56.554800
1066,2,6,0.266340,-0.232456,-0.498796,56.322344
1067,2,6,0.285188,-0.348183,-0.633371,55.974161
1068,2,6,0.303822,-0.431961,-0.735782,55.542201
1069,2,6,0.322255,-0.486315,-0.808571,55.055885
1070,2,6,0.340498,-0.513752,-0.854250,54.542133
1071,2,6,0.358551,-0.516745,-0.875296,54.025388
1072,2,7,0.376412,-0.497725,-0.874137,53.527663
1073,2,7,0.394072,-0.459070,-0.853143,53.068593
1074,2,7,0.411523,-0.403098,-0.814621,52.665495
1075,2,7,0.428750,-0.332052,-0.760802,52.333443
1076,2,7,0.445739,-0.248099,-0.693838,52.085344
1077,2,7,0.462475,-0.153316,-0.615790,51.932028
1078,2,7,0.478940,-0.049684,-0.528624,51.882344
1079,2,7,0.495119,0.060914,-0.434206,51.943258
1080,2,7,0.510997,0.176702,-0.334295,52.119959
1081,2,7,0.526558,0.296015,-0.230543,52.415974
1082,2,7,0.541788,0.417301,-0.124487,52.833275
1083,2,8,0.556675,0.539127,-0.017549,53.372402
1084,2,8,-0.071205,0.017759,0.088964,53.390161
1085,2,8,-0.069858,-0.454168,-0.384310,52.935993
1086,2,8,-0.068194,-0.877371,-0.809177,52.058622
1087,2,8,-0.066212,-1.252866,-1.186654,50.805757
1088,2,8,-0.063919,-1.581938,-1.518019,49.223819
1089,2,8,-0.061329,-1.866116,-1.804787,47.357703
1090,2,8,-0.058459,-2.107143,-2.048683,45.250560
1091,2,8,-0.055335,-2.306946,-2.251611,42.943614
1092,2,8,-0.051984,-2.467615,-2.415631,40.475999
1093,2,9,-0.048436,-2.591367,-2.542930,37.884633
1094,2,9,-0.044725,-2.680525,-2.635800,35.204108
1095,2,9,-0.040885,-2.737493,-2.696607,32.466615
1096,2,9,-0.036953,-2.764727,-2.727774,29.701888
1097,2,9,-0.032962,-2.764716,-2.731754,26.937172
1098,2,9,-0.028950,-2.739958,-2.711009,24.197214
1099,2,9,-0.024949,-2.692941,-2.667991,21.504273
1100,2,9,-0.020994,-2.626120,-2.605126,18.878153
1101,2,9,-0.017115,-2.541905,-2.524790,16.336249
1102,2,9,-0.013342,-2.442642,-2.429301,13.893606
1103,2,9,-0.009700,-2.330600,-2.320900,11.563006
1104,2,9,-0.006215,-2.207957,-2.201742,9.355049
1105,2,9,-0.002908,-2.076791,-2.073884,7.278258
1106,2,10,0.000204,-1.939071,-1.939275,5.339186
1107,2,10,0.003103,-1.796648,-1.799751,3.542539
1108,2,10,0.005779,-1.651248,-1.657027,1.891290
1109,2,10,0.008220,-1.504472,-1.512692,0.386818
1110,2,10,0.010421,-1.357789,-1.368210,-0.970971
1111,2,10,0.012376,-1.212535,-1.224911,-2.183505
1112,2,10,0.014086,-1.069913,-1.083999,-3.253418
1113,2,10,0.015550,-0.930995,-0.946545,-4.184413
1114,2,10,0.016773,-0.796722,-0.813495,-4.981136
1115,2,10,0.017759,-0.667908,-0.685667,-5.649043
1116,2,10,0.018517,-0.545242,-0.563758,-6.194285
1117,2,10,0.019055,-0.429295,-0.448350,-6.623580
1118,2,10,0.019384,-0.320524,-0.339908,-6.944103
1119,2,11,0.019517,-0.219277,-0.238795,-7.163381
1120,2,11,0.019466,-0.125803,-0.145269,-7.289184
1121,2,11,0.019246,-0.040252,-0.059497,-7.329435
1122,2,11,0.018870,0.037313,0.018442,-7.292122
1123,2,11,0.018355,0.106907,0.088552,-7.185215
1124,2,11,0.017715,0.168623,0.150907,-7.016592
1125,2,11,0.016967,0.222616,0.205650,-6.793976
1126,2,11,0.016125,0.269104,0.252979,-6.524872
1127,2,11,0.015204,0.308352,0.293148,-6.216520
1128,2,11,0.014220,0.340673,0.326453,-5.875847
1129,2,12,0.013186,0.366416,0.353230,-5.509431
1130,2,12,0.012117,0.385961,0.373843,-5.123470
1131,2,12,0.011026,0.399711,0.388685,-4.723760
1132,2,12,0.009923,0.408089,0.398166,-4.315670
1133,2,12,0.008822,0.411531,0.402708,-3.904140
1134,2,12,0.007732,0.410477,0.402745,-3.493663
1135,2,12,0.006663,0.405374,0.398711,-3.088289
1136,2,12,0.005624,0.396662,0.391039,-2.691626
1137,2,12,0.004621,0.384779,0.380158,-2.306847
1138,2,12,0.003662,0.370150,0.366489,-1.936697
1139,2,12,0.002752,0.353189,0.350437,-1.583508
1140,2,12,0.001896,0.334291,0.332395,-1.249217
1141,2,13,0.001097,0.313835,0.312738,-0.935382
1142,2,13,0.000359,0.292180,0.291821,-0.643202
1143,2,13,-0.000316,0.269661,0.269977,-0.373541
1144,2,13,-0.000976,0.246543,0.247519,-0.126998
1145,2,13,-0.001507,0.223183,0.224690,0.096185
1146,2,13,-0.001922,0.199895,0.201817,0.296080
1147,2,13,-0.002232,0.176952,0.179184,0.473032
1148,2,13,-0.002449,0.154587,0.157036,0.627619
1149,2,13,-0.002584,0.132996,0.135580,0.760615
1150,2,13,-0.002648,0.112342,0.114990,0.872957
1151,2,13,-0.002651,0.092752,0.095403,0.965709
1152,2,13,-0.002603,0.074326,0.076930,1.040035
1153,2,13,-0.002514,0.057137,0.059651,1.097172
1154,2,14,-0.002391,0.041232,0.043623,1.138404
1155,2,14,-0.821669,-0.792789,0.028880,0.345616
1156,2,14,-0.777221,-1.499269,-0.722048,-1.153653
1157,2,14,-0.734076,-2.086009,-1.351934,-3.239662
1158,2,14,-0.692477,-2.561233,-1.868756,-5.800896
1159,2,14,-0.652608,-2.933420,-2.280812,-8.734316
1160,2,14,-0.614598,-3.211169,-2.596571,-11.945484
1161,2,14,-0.578530,-3.403074,-2.824545,-15.348559
1162,2,14,-0.544446,-3.517622,-2.973176,-18.866181
1163,2,14,-0.512354,-3.563100,-3.050746,-22.429281
1164,2,15,-0.482231,-3.547525,-3.065294,-25.976806
1165,2,15,-0.454030,-3.478583,-3.024553,-29.455388
1166,2,15,-0.427682,-3.363580,-2.935898,-32.818969
1167,2,15,-0.403105,-3.209412,-2.806307,-36.028381
1168,2,15,-0.380203,-3.022531,-2.642329,-39.050912
1169,2,15,-0.358872,-2.808937,-2.450065,-41.859849
1170,2,15,-0.339001,-2.574162,-2.235161,-44.434012
1171,2,15,-0.320478,-2.323275,-2.002797,-46.757287
1172,2,15,-0.303188,-2.060881,-1.757693,-48.818167
1173,2,15,-0.287019,-1.791131,-1.504113,-50.609299
1174,2,15,-0.271858,-1.517740,-1.245882,-52.127039
1175,2,16,-0.257601,-1.243997,-0.986397,-53.371037
1176,2,16,-0.244143,-0.972788,-0.728645,-54.343825
1177,2,16,-0.231390,-0.706617,-0.475227,-55.050441
1178,2,16,-0.251090,-0.479466,-0.228376,-55.529908
1179,2,16,-0.270445,-0.289086,-0.018641,-55.818994
1180,2,16,-0.289496,-0.133199,0.156297,-55.952192
1181,2,16,-0.308274,-0.009511,0.298764,-55.961703
1182,2,16,-0.326802,0.084280,0.411082,-55.877423
1183,2,16,-0.345095,0.150469,0.495565,-55.726954
1184,2,16,-0.363161,0.191342,0.554503,-55.535612
1185,2,16,-0.381004,0.209156,0.590160,-55.326456
1186,2,16,-0.398622,0.206135,0.604757,-55.120321
1187,2,17,-0.416009,0.184461,0.600470,-54.935860
1188,2,17,-0.433159,0.146258,0.579417,-54.789602
1189,2,17,-0.450060,0.093591,0.543651,-54.696010
1190,2,17,-0.466701,0.028453,0.495154,-54.667558
1191,2,17,-0.483070,-0.047242,0.435828,-54.714800
1192,2,17,-0.499152,-0.131663,0.367489,-54.846463
1193,2,17,-0.514935,-0.223071,0.291864,-55.069534
1194,2,17,-0.530407,-0.319823,0.210584,-55.389357
1195,2,17,-0.545555,-0.420374,0.125181,-55.809731
1196,2,17,-0.560368,-0.523285,0.037084,-56.333016
1197,2,18,-0.574837,-0.627221,-0.052383,-56.960237
1198,2,18,0.080311,-0.061690,-0.142001,-57.021927
1199,2,18,0.078786,0.450466,0.371681,-56.571461
1200,2,18,0.072984,0.906068,0.833084,-55.665393
1201,2,18,0.067050,1.306797,1.239747,-54.358596
1202,2,18,0.061072,1.654680,1.593607,-52.703917
1203,2,18,0.055129,1.952030,1.896901,-50.751886
1204,2,18,0.049287,2.201394,2.152107,-48.550493
1205,2,18,0.043603,2.405496,2.361893,-46.144997
1206,2,18,0.038124,2.567199,2.529075,-43.577797
1207,2,18,0.032889,2.689456,2.656567,-40.888341
1208,2,18,0.027929,2.775273,2.747344,-38.113068
1209,2,18,0.023267,2.827675,2.804408,-35.285393
1210,2,18,0.018919,2.849675,2.830756,-32.435717
1211,2,19,0.014898,2.844246,2.829348,-29.591471
1212,2,19,0.593133,3.396222,2.803089,-26.195250
1213,2,19,0.577945,3.856481,3.278536,-22.338769
1214,2,19,0.540258,4.207555,3.667297,-18.131214
1215,2,19,0.504653,4.458993,3.954340,-13.672220
1216,2,19,0.471166,4.620244,4.149078,-9.051976
1217,2,19,0.439800,4.700562,4.260762,-4.351414
1218,2,19,0.410524,4.708920,4.298395,0.357505
1219,2,19,0.383282,4.653945,4.270663,5.011450
1220,2,19,0.357998,4.543867,4.185869,9.555318
1221,2,19,0.334578,4.386472,4.051894,13.941790
1222,2,20,0.312918,4.189078,3.876160,18.130868
1223,2,20,0.292902,3.958509,3.665607,22.089377
1224,2,20,0.274412,3.701088,3.426676,25.790464
1225,2,20,0.274376,3.439685,3.165309,29.230149
1226,2,20,0.274488,3.176776,2.902288,32.406925
1227,2,20,0.274727,2.914599,2.639872,35.321524
1228,2,20,0.275073,2.655160,2.380087,37.976684
1229,2,20,0.275507,2.400240,2.124733,40.376924
1230,2,20,0.276012,2.151403,1.875391,42.528327
1231,2,20,0.276572,1.910008,1.633436,44.438335
1232,2,20,0.277173,1.677218,1.400045,46.115553
1233,2,20,0.277800,1.454008,1.176208,47.569561
1234,2,21,0.278441,1.241182,0.962741,48.810742
1235,2,21,0.279086,1.039377,0.760292,49.850120
1236,2,21,0.279724,0.849083,0.569359,50.699202
1237,2,21,0.280347,0.670646,0.390299,51.369848
1238,2,21,0.280947,0.504284,0.223337,51.874132
1239,2,21,0.281519,0.350101,0.068582,52.224233
1240,2,21,0.282055,0.208090,-0.073965,52.432323
1241,2,21,0.282553,0.078152,-0.204401,52.510475
1242,2,21,0.283007,-0.039899,-0.322906,52.470577
1243,2,21,0.283416,-0.146322,-0.429737,52.324255
1244,2,21,0.283776,-0.241443,-0.525219,52.082813
1245,2,22,0.284087,-0.325643,-0.609730,51.757170
1246,2,22,0.284348,-0.399351,-0.683700,51.357819
1247,2,22,0.284559,-0.463036,-0.747595,50.894783
1248,2,22,0.303177,-0.498739,-0.801916,50.396044
1249,2,22,0.321616,-0.508960,-0.830576,49.887084
1250,2,22,0.339876,-0.496159,-0.836034,49.390925
1251,2,22,0.357952,-0.462744,-0.820696,48.928180
1252,2,22,0.375836,-0.411066,-0.786902,48.517114
1253,2,22,0.393516,-0.343405,-0.736921,48.173709
1254,2,22,0.410978,-0.261965,-0.672943,47.911744
1255,2,22,0.428206,-0.168865,-0.597071,47.742879
1256,2,23,0.445184,-0.066133,-0.511317,47.676746
1257,2,23,-0.041785,-0.459376,-0.417591,47.217371
1258,2,23,-0.041026,-0.812039,-0.771014,46.405331
1259,2,23,-0.040118,-1.125084,-1.084966,45.280248
1260,2,23,-0.039042,-1.399657,-1.360615,43.880590
1261,2,23,-0.037787,-1.637080,-1.599293,42.243510
1262,2,23,-0.036349,-1.838825,-1.802477,40.404684
1263,2,23,-0.034728,-2.006497,-1.971769,38.398187
1264,2,23,-0.032932,-2.141815,-2.108883,36.256372
1265,2,23,-0.030973,-2.246593,-2.215620,34.009779
1266,2,23,-0.028864,-2.322720,-2.293856,31.687059
1267,2,24,-0.026624,-2.372146,-2.345522,29.314913
1268,2,24,-0.024274,-2.396859,-2.372584,26.918054
1269,2,24,-0.021835,-2.398870,-2.377035,24.519185
1270,2,24,-0.019331,-2.380199,-2.360868,22.138985
1271,2,24,-0.016784,-2.342857,-2.326073,19.796128
1272,2,24,-0.014220,-2.288834,-2.274614,17.507294
1273,2,24,-0.011661,-2.220082,-2.208421,15.287212
1274,2,24,-0.009129,-2.138508,-2.129379,13.148704
1275,2,24,-0.006648,-2.045959,-2.039311,11.102744
1276,2,24,-0.004237,-1.944215,-1.939979,9.158529
1277,2,24,-0.001914,-1.834979,-1.833064,7.323550
1278,2,25,0.000303,-1.719867,-1.720170,5.603684
1279,2,25,0.002399,-1.600408,-1.602807,4.003275
1280,2,25,0.004360,-1.478035,-1.482395,2.525241
1281,2,25,0.006351,-1.353905,-1.360256,1.171336
1282,2,25,0.007998,-1.229456,-1.237453,-0.058120
1283,2,25,0.009326,-1.105969,-1.115295,-1.164089
1284,2,25,0.010362,-0.984575,-0.994936,-2.148663
1285,2,25,0.011131,-0.866256,-0.877387,-3.014919
1286,2,25,0.011660,-0.751855,-0.763515,-3.766774
1287,2,25,0.011975,-0.642083,-0.654057,-4.408856
1288,2,25,0.012100,-0.537524,-0.549623,-4.946380
1289,2,25,0.012059,-0.438646,-0.450705,-5.385026
1290,2,25,0.011875,-0.345809,-0.357683,-5.730835
1291,2,26,0.011568,-0.259272,-0.270840,-5.990106
1292,2,26,0.764704,0.574341,-0.190363,-5.415766
1293,2,26,0.746458,1.308290,0.561832,-4.107475
1294,2,26,0.686330,1.904410,1.218080,-2.203066
1295,2,26,0.629056,2.373831,1.744775,0.170765
1296,2,26,0.574818,2.727789,2.152971,2.898554
1297,2,26,0.523719,2.977448,2.453729,5.876002
1298,2,26,0.475792,3.133756,2.657964,9.009758
1299,2,26,0.431017,3.207328,2.776311,12.217087
1300,2,26,0.389324,3.208346,2.819022,15.425433
1301,2,26,0.350604,3.146487,2.795883,18.571920
1302,2,27,0.314720,3.030868,2.716148,21.602787
1303,2,27,0.281512,2.870003,2.588491,24.472790
1304,2,27,0.250803,2.671784,2.420982,27.144575
1305,2,27,0.235030,2.456090,2.221060,29.600665
1306,2,27,0.220297,2.227194,2.006897,31.827858
1307,2,27,0.206505,1.988975,1.782469,33.816833
1308,2,27,0.193559,1.744927,1.551368,35.561760
1309,2,27,0.181366,1.498174,1.316808,37.059934
1310,2,27,0.169837,1.251480,1.081643,38.311414
1311,2,27,0.158890,1.007273,0.848383,39.318687
1312,2,27,0.148448,0.767658,0.619210,40.086345
1313,2,27,0.138438,0.534440,0.396002,40.620785
1314,2,28,0.128796,0.309144,0.180349,40.929929
1315,2,28,0.012997,-0.013429,-0.026426,40.916501
1316,2,28,0.017345,-0.301715,-0.319060,40.614786
1317,2,28,0.018886,-0.559531,-0.578417,40.055254
1318,2,28,0.020112,-0.788077,-0.808189,39.267178
1319,2,28,0.021054,-0.988630,-1.009684,38.278548
1320,2,28,0.021738,-1.162532,-1.184270,37.116016
1321,2,28,0.022190,-1.311178,-1.333368,35.804838
1322,2,28,0.022435,-1.435995,-1.458430,34.368842
1323,2,28,0.022495,-1.538437,-1.560932,32.830406
1324,2,28,0.022391,-1.619968,-1.642360,31.210437
1325,2,29,0.022144,-1.682055,-1.704199,29.528382
1326,2,29,0.021771,-1.726157,-1.747928,27.802225
1327,2,29,0.021290,-1.753714,-1.775004,26.048511
1328,2,29,0.018919,-1.767940,-1.786859,24.280571
1329,2,29,0.016760,-1.769750,-1.786510,22.510821
1330,2,29,0.011149,-1.763730,-1.774879,20.747090
1331,2,29,-0.008595,-1.764784,-1.756189,18.982307
1332,2,29,-0.027981,-1.771889,-1.743909,17.210418
1333,2,29,-0.047009,-1.784076,-1.737067,15.426341
1334,2,29,-0.065680,-1.800427,-1.734747,13.625914
1335,2,29,-0.083995,-1.820077,-1.736082,11.805838
1336,2,29,-0.101950,-1.842214,-1.740263,9.963624
1337,2,29,-0.119546,-1.866082,-1.746536,8.097542
1338,2,29,-0.136780,-1.890981,-1.754201,6.206561
1339,2,30,-0.153651,-1.916265,-1.762614,4.290296
1340,2,30,-0.170158,-1.941346,-1.771188,2.348950
1341,2,30,-0.186300,-1.965688,-1.779388,0.383262
1342,2,30,-0.202076,-1.988813,-1.786736,-1.605550
1343,2,30,-0.217489,-2.010295,-1.792806,-3.615845
1344,2,30,-0.232538,-2.029762,-1.797224,-5.645607
1345,2,30,-0.247227,-2.046894,-1.799667,-7.692501
1346,2,30,-0.261557,-2.061419,-1.799862,-9.753920
1347,2,30,-0.275532,-2.073115,-1.797583,-11.827035
1348,2,30,-0.289156,-2.081805,-1.792649,-13.908840
1349,2,30,-0.302435,-2.087357,-1.784922,-15.996198
1350,2,30,-0.315375,-2.089680,-1.774305,-18.085878
1351,2,30,-0.327981,-2.088722,-1.760741,-20.174599
1352,2,31,-0.340261,-2.084466,-1.744205,-22.259066
1353,2,31,0.706781,-1.017929,-1.724710,-23.276995
1354,2,31,0.719454,-0.029739,-0.749193,-23.306734
1355,2,31,0.702364,0.850176,0.147812,-22.456559
1356,2,31,0.685164,1.625123,0.939959,-20.831436
1357,2,31,0.668019,2.299054,1.631035,-18.532382
1358,2,31,0.651070,2.876454,2.225384,-15.655928
1359,2,31,0.634440,3.362242,2.727802,-12.293686
1360,2,31,0.618232,3.761669,3.143437,-8.532017
1361,2,31,0.602530,4.080235,3.477705,-4.451782
1362,2,32,0.587405,4.323607,3.736202,-0.128175
1363,2,32,0.572910,4.497545,3.924635,4.369370
1364,2,32,0.559086,4.607838,4.048752,8.977208
1365,2,32,0.524556,4.638839,4.114284,13.616048
1366,2,32,0.492283,4.599910,4.107626,18.215957
1367,2,32,0.462213,4.500011,4.037798,22.715969
1368,2,32,0.434264,4.347655,3.913391,27.063623
1369,2,32,0.408339,4.150858,3.742519,31.214481
1370,2,32,0.384324,3.917119,3.532795,35.131600
1371,2,32,0.362097,3.653395,3.291298,38.784995
1372,2,33,0.341529,3.366098,3.024568,42.151092
1373,2,33,0.322488,3.061088,2.738600,45.212181
1374,2,33,0.304840,2.743686,2.438846,47.955867
1375,2,33,0.288453,2.418679,2.130226,50.374546
1376,2,33,0.273197,2.090339,1.817142,52.464886
1377,2,33,0.258949,1.762445,1.503496,54.227331
1378,2,33,0.245589,1.438303,1.192714,55.665634
1379,2,33,0.233005,1.120773,0.887768,56.786407
1380,2,33,0.221093,0.812296,0.591203,57.598703
1381,2,33,0.209755,0.514924,0.305168,58.113627
1382,2,33,0.198903,0.230344,0.031441,58.343971
1383,2,33,0.188456,-0.040086,-0.228542,58.303885
1384,2,34,0.178342,-0.295316,-0.473657,58.008569
1385,2,34,0.168494,-0.534569,-0.703063,57.474001
1386,2,34,0.158858,-0.757318,-0.916176,56.716682
1387,2,34,0.177820,-0.934822,-1.112641,55.781861
1388,2,34,0.196611,-1.070103,-1.266715,54.711757
1389,2,34,0.215275,-1.166182,-1.381457,53.545576
1390,2,34,0.233841,-1.226061,-1.459902,52.319515
1391,2,34,0.252325,-1.252722,-1.505047,51.066793
1392,2,34,0.270737,-1.249109,-1.519846,49.817684
1393,2,34,0.289078,-1.218121,-1.507199,48.599563
1394,2,34,0.307340,-1.162602,-1.469941,47.436962
1395,2,35,0.325511,-1.085327,-1.410838,46.351635
1396,2,35,-0.013225,-1.345797,-1.332572,45.005838
1397,2,35,-0.013511,-1.572365,-1.558854,43.433473
1398,2,35,-0.014874,-1.767546,-1.752672,41.665927
1399,2,35,-0.015980,-1.932523,-1.916543,39.733404
1400,2,35,-0.016803,-2.068568,-2.051765,37.664836
1401,2,35,-0.017326,-2.177038,-2.159712,35.487799
1402,2,35,-0.017544,-2.259364,-2.241820,33.228434
1403,2,35,-0.017459,-2.317045,-2.299586,30.911389
1404,2,35,-0.017078,-2.351632,-2.334554,28.559757
1405,2,35,-0.016417,-2.364721,-2.348304,26.195035
1406,2,35,-0.015494,-2.357941,-2.342447,23.837094
1407,2,35,-0.014333,-2.332942,-2.318610,21.504152
1408,2,35,-0.012959,-2.291386,-2.278426,19.212766
1409,2,35,-0.011403,-2.234931,-2.223528,16.977835
1410,2,36,-0.009693,-2.165227,-2.155534,14.812609
1411,2,36,-0.007862,-2.083899,-2.076038,12.728709
1412,2,36,-0.005940,-1.992544,-1.986604,10.736166
1413,2,36,-0.003958,-1.892713,-1.888755,8.843453
1414,2,36,-0.001948,-1.785910,-1.783963,7.057543
1415,2,36,0.000063,-1.673582,-1.673645,5.383961
1416,2,36,0.002047,-1.557108,-1.559155,3.826853
1417,2,36,0.003978,-1.437799,-1.441777,2.389054
1418,2,36,0.005834,-1.316886,-1.322720,1.072167
1419,2,36,0.007592,-1.195523,-1.203116,-0.123356
1420,2,36,0.009236,-1.074776,-1.084012,-1.198132
1421,2,36,0.010749,-0.955624,-0.966373,-2.153755
1422,2,36,0.012119,-0.838956,-0.851075,-2.992712
1423,2,37,0.013335,-0.725573,-0.738907,-3.718285
1424,2,37,0.014388,-0.616182,-0.630570,-4.334466
1425,2,37,0.015275,-0.511401,-0.526676,-4.845867
1426,2,37,0.015993,-0.411759,-0.427752,-5.257627
1427,2,37,0.016541,-0.317699,-0.334239,-5.575325
1428,2,37,0.016920,-0.229576,-0.246497,-5.804902
1429,2,37,0.017136,-0.147668,-0.164804,-5.952570
1430,2,37,0.017193,-0.072172,-0.089364,-6.024741
1431,2,37,0.017098,-0.003212,-0.020310,-6.027953
1432,2,37,0.016862,0.059157,0.042295,-5.968796
1433,2,37,0.016492,0.114942,0.098451,-5.853854
1434,2,37,0.016001,0.164215,0.148214,-5.689639
1435,2,38,0.015399,0.207096,0.191697,-5.482543
1436,2,38,0.014700,0.243759,0.229059,-5.238783
1437,2,38,0.013916,0.274418,0.260502,-4.964365
1438,2,38,0.013059,0.299326,0.286267,-4.665039
1439,2,38,0.012143,0.318769,0.306626,-4.346270
1440,2,38,0.011181,0.333061,0.321880,-4.013209
1441,2,38,0.010184,0.342536,0.332352,-3.670673
1442,2,38,0.009166,0.347547,0.338382,-3.323125
1443,2,38,0.008137,0.348460,0.340323,-2.974666
1444,2,38,0.007109,0.345646,0.338537,-2.629020
1445,2,38,0.006091,0.339482,0.333391,-2.289538
1446,2,38,0.005094,0.330346,0.325252,-1.959192
1447,2,39,0.004125,0.318608,0.314483,-1.640584
1448,2,39,0.003193,0.304634,0.301441,-1.335950
1449,2,39,0.002304,0.288779,0.286475,-1.047172
1450,2,39,0.001464,0.271384,0.269920,-0.775788
1451,2,39,0.000677,0.252777,0.252099,-0.523011
1452,2,39,-0.000051,0.233266,0.233317,-0.289745
1453,2,39,-0.000719,0.213143,0.213862,-0.076602
1454,2,39,-0.001324,0.192678,0.194002,0.116076
1455,2,39,-0.001865,0.172120,0.173985,0.288196
1456,2,39,-0.002340,0.151697,0.154038,0.439893
Got finish at time None
-1,3,0,-0.002751,0.131615,0.134366,0.571508
Got lapFinished at time None
Race ended
{u'bestLaps': [{u'car': {u'color': u'red', u'name': u'clarkson'},
                u'result': {u'lap': 2, u'millis': 7750, u'ticks': 465}}],
 u'results': [{u'car': {u'color': u'red', u'name': u'clarkson'},
               u'result': {u'laps': 3, u'millis': 24267, u'ticks': 1456}}]}
Got tournamentEnd at time None
