tick,lane,angV,ang,velocity,piecePos,radius
1523,0,0.000000000000,-0.000000000000,2.000003780196,1.212369544700,110.000000000000
1524,0,0.000000000000,-0.000000000000,2.000003704592,3.212373249293,110.000000000000
1525,0,0.000000000000,-0.000000000000,2.000003630501,5.212376879793,110.000000000000
1526,0,0.000000000000,-0.000000000000,2.000003557891,7.212380437684,110.000000000000
1527,0,0.000000000000,-0.000000000000,2.000003486733,9.212383924417,110.000000000000
1528,0,0.000000000000,-0.000000000000,2.000003416998,11.212387341415,110.000000000000
1529,0,0.000000000000,-0.000000000000,2.000003348658,13.212390690073,110.000000000000
1530,0,0.000000000000,-0.000000000000,2.000003281685,15.212393971759,110.000000000000
1531,0,0.000000000000,-0.000000000000,2.000003216051,17.212397187810,110.000000000000
1532,0,0.000000000000,-0.000000000000,2.000003151730,19.212400339540,110.000000000000
1533,0,0.000000000000,-0.000000000000,2.000003088696,21.212403428236,110.000000000000
1534,0,0.000000000000,-0.000000000000,2.000003026922,23.212406455158,110.000000000000
1535,0,0.000000000000,-0.000000000000,2.000002966383,25.212409421541,110.000000000000
1536,0,0.000000000000,-0.000000000000,2.000002907056,27.212412328597,110.000000000000
1537,0,0.000000000000,-0.000000000000,2.000002848914,29.212415177512,110.000000000000
1538,0,0.000000000000,-0.000000000000,2.000002791936,31.212417969448,110.000000000000
1539,0,0.000000000000,-0.000000000000,2.000002736098,33.212420705546,110.000000000000
1540,0,0.000000000000,-0.000000000000,2.000002681375,35.212423386921,110.000000000000
1541,0,0.000000000000,-0.000000000000,2.000002627748,37.212426014670,110.000000000000
1542,0,0.000000000000,-0.000000000000,2.000002575193,39.212428589863,110.000000000000
1543,0,0.000000000000,-0.000000000000,2.000002523690,41.212431113552,110.000000000000
1544,0,0.000000000000,-0.000000000000,2.000002473215,43.212433586768,110.000000000000
1545,0,0.000000000000,-0.000000000000,2.000002423751,45.212436010519,110.000000000000
1546,0,0.000000000000,-0.000000000000,2.000002375276,47.212438385795,110.000000000000
1547,0,0.000000000000,-0.000000000000,2.000002327771,49.212440713566,110.000000000000
1548,0,0.000000000000,-0.000000000000,2.000002281215,51.212442994781,110.000000000000
1549,0,0.000000000000,-0.000000000000,2.000002235591,53.212445230372,110.000000000000
1550,0,0.000000000000,-0.000000000000,2.000002190879,55.212447421251,110.000000000000
1551,0,0.000000000000,-0.000000000000,2.000002147061,57.212449568313,110.000000000000
1552,0,0.000000000000,-0.000000000000,2.000002104121,59.212451672433,110.000000000000
1553,0,0.000000000000,-0.000000000000,2.000002062038,61.212453734471,110.000000000000
1554,0,0.000000000000,-0.000000000000,2.000002020797,63.212455755268,110.000000000000
1555,0,0.000000000000,-0.000000000000,2.000001980382,65.212457735649,110.000000000000
1556,0,0.000000000000,-0.000000000000,2.000001940773,67.212459676423,110.000000000000
1557,0,0.000000000000,-0.000000000000,2.000001901958,69.212461578381,110.000000000000
1558,0,0.000000000000,-0.000000000000,2.000001863919,71.212463442300,110.000000000000
1559,0,0.000000000000,-0.000000000000,2.000001826641,73.212465268940,110.000000000000
1560,0,0.000000000000,-0.000000000000,2.000001790108,75.212467059048,110.000000000000
1561,0,0.000000000000,-0.000000000000,2.000001754306,77.212468813354,110.000000000000
1562,0,0.000000000000,-0.000000000000,2.000001719219,79.212470532573,110.000000000000
1563,0,0.000000000000,-0.000000000000,2.000001684835,81.212472217408,110.000000000000
1564,0,0.000000000000,-0.000000000000,2.000001651139,83.212473868547,110.000000000000
1565,0,0.000000000000,-0.000000000000,2.000001618116,85.212475486662,110.000000000000
1472,0,-0.000000000000,0.000000000000,2.250036712922,1.960755841160,110.000000000000
1473,0,-0.000000000000,0.000000000000,2.250035978663,4.210791819823,110.000000000000
1474,0,-0.000000000000,0.000000000000,2.250035259090,6.460827078913,110.000000000000
1475,0,-0.000000000000,0.000000000000,2.250034553908,8.710861632821,110.000000000000
1476,0,-0.000000000000,0.000000000000,2.250033862830,10.960895495652,110.000000000000
1477,0,-0.000000000000,0.000000000000,2.250033185574,13.210928681225,110.000000000000
1478,0,-0.000000000000,0.000000000000,2.250032521862,15.460961203087,110.000000000000
1479,0,-0.000000000000,0.000000000000,2.250031871425,17.710993074512,110.000000000000
1480,0,-0.000000000000,0.000000000000,2.250031233997,19.961024308508,110.000000000000
1481,0,-0.000000000000,0.000000000000,2.250030609316,22.211054917825,110.000000000000
1482,0,-0.000000000000,0.000000000000,2.250029997130,24.461084914955,110.000000000000
1483,0,-0.000000000000,0.000000000000,2.250029397188,26.711114312142,110.000000000000
1484,0,-0.000000000000,0.000000000000,2.250028809244,28.961143121386,110.000000000000
1485,0,-0.000000000000,0.000000000000,2.250028233059,31.211171354445,110.000000000000
1486,0,-0.000000000000,0.000000000000,2.250027668398,33.461199022843,110.000000000000
1487,0,-0.000000000000,0.000000000000,2.250027115030,35.711226137872,110.000000000000
1488,0,-0.000000000000,0.000000000000,2.250026572729,37.961252710601,110.000000000000
1489,0,-0.000000000000,0.000000000000,2.250026041274,40.211278751876,110.000000000000
1490,0,-0.000000000000,0.000000000000,2.250025520449,42.461304272325,110.000000000000
1491,0,-0.000000000000,0.000000000000,2.250025010040,44.711329282365,110.000000000000
1492,0,-0.000000000000,0.000000000000,2.250024509839,46.961353792204,110.000000000000
1493,0,-0.000000000000,0.000000000000,2.250024019643,49.211377811847,110.000000000000
1494,0,-0.000000000000,-0.000000000000,2.250023539249,51.461401351096,110.000000000000
1495,0,-0.000000000000,-0.000000000000,2.250023068465,53.711424419561,110.000000000000
1496,0,-0.000000000000,-0.000000000000,2.250022607096,55.961447026656,110.000000000000
1497,0,-0.000000000000,-0.000000000000,2.250022154954,58.211469181610,110.000000000000
1498,0,-0.000000000000,-0.000000000000,2.250021711854,60.461490893464,110.000000000000
1499,0,-0.000000000000,-0.000000000000,2.250021277618,62.711512171082,110.000000000000
1500,0,-0.000000000000,-0.000000000000,2.250020852065,64.961533023146,110.000000000000
1501,0,-0.000000000000,-0.000000000000,2.250020435024,67.211553458170,110.000000000000
1502,0,-0.000000000000,-0.000000000000,2.250020026323,69.461573484493,110.000000000000
1503,0,-0.000000000000,-0.000000000000,2.250019625797,71.711593110290,110.000000000000
1504,0,-0.000000000000,-0.000000000000,2.250019233281,73.961612343571,110.000000000000
1505,0,-0.000000000000,-0.000000000000,2.250018848615,76.211631192186,110.000000000000
1506,0,-0.000000000000,-0.000000000000,2.250018471643,78.461649663829,110.000000000000
1507,0,-0.000000000000,-0.000000000000,2.250018102210,80.711667766039,110.000000000000
1508,0,-0.000000000000,-0.000000000000,2.250017740166,82.961685506205,110.000000000000
1509,0,-0.000000000000,-0.000000000000,2.250017385362,85.211702891567,110.000000000000
1432,0,0.000000000000,-0.000000000000,2.500134771683,1.705950961879,110.000000000000
1433,0,0.000000000000,-0.000000000000,2.500132076249,4.206083038128,110.000000000000
1434,0,0.000000000000,-0.000000000000,2.500129434724,6.706212472852,110.000000000000
1435,0,0.000000000000,-0.000000000000,2.500126846030,9.206339318882,110.000000000000
1436,0,0.000000000000,-0.000000000000,2.500124309109,11.706463627991,110.000000000000
1437,0,0.000000000000,-0.000000000000,2.500121822927,14.206585450917,110.000000000000
1438,0,0.000000000000,-0.000000000000,2.500119386468,16.706704837386,110.000000000000
1439,0,0.000000000000,-0.000000000000,2.500116998739,19.206821836124,110.000000000000
1440,0,0.000000000000,-0.000000000000,2.500114658764,21.706936494889,110.000000000000
1441,0,0.000000000000,-0.000000000000,2.500112365589,24.207048860477,110.000000000000
1442,0,0.000000000000,-0.000000000000,2.500110118277,26.707158978754,110.000000000000
1443,0,0.000000000000,-0.000000000000,2.500107915911,29.207266894666,110.000000000000
1444,0,0.000000000000,-0.000000000000,2.500105757593,31.707372652259,110.000000000000
1445,0,0.000000000000,-0.000000000000,2.500103642441,34.207476294701,110.000000000000
1446,0,0.000000000000,-0.000000000000,2.500101569593,36.707577864293,110.000000000000
1447,0,0.000000000000,-0.000000000000,2.500099538201,39.207677402494,110.000000000000
1448,0,0.000000000000,-0.000000000000,2.500097547436,41.707774949931,110.000000000000
1449,0,0.000000000000,-0.000000000000,2.500095596488,44.207870546418,110.000000000000
1450,0,0.000000000000,-0.000000000000,2.500093684558,46.707964230977,110.000000000000
1451,0,0.000000000000,-0.000000000000,2.500091810867,49.208056041844,110.000000000000
1452,0,0.000000000000,-0.000000000000,2.500089974650,51.708146016493,110.000000000000
1453,0,0.000000000000,-0.000000000000,2.500088175157,54.208234191650,110.000000000000
1454,0,0.000000000000,-0.000000000000,2.500086411653,56.708320603304,110.000000000000
1455,0,0.000000000000,-0.000000000000,2.500084683421,59.208405286724,110.000000000000
1456,0,0.000000000000,-0.000000000000,2.500082989752,61.708488276476,110.000000000000
1457,0,0.000000000000,-0.000000000000,2.500081329957,64.208569606433,110.000000000000
1458,0,0.000000000000,-0.000000000000,2.500079703358,66.708649309791,110.000000000000
1459,0,0.000000000000,-0.000000000000,2.500078109291,69.208727419082,110.000000000000
1460,0,0.000000000000,0.000000000000,2.500076547105,71.708803966187,110.000000000000
1461,0,0.000000000000,0.000000000000,2.500075016163,74.208878982350,110.000000000000
1462,0,0.000000000000,0.000000000000,2.500073515840,76.708952498189,110.000000000000
1463,0,0.000000000000,0.000000000000,2.500072045523,79.209024543712,110.000000000000
1464,0,0.000000000000,0.000000000000,2.500070604613,81.709095148324,110.000000000000
1465,0,0.000000000000,0.000000000000,2.500069192520,84.209164340845,110.000000000000
1406,0,-0.000000000000,0.000000000000,2.750074796559,0.708889742921,110.000000000000
1407,0,-0.000000000000,0.000000000000,2.750073300628,3.458963043549,110.000000000000
1408,0,-0.000000000000,0.000000000000,2.750071834615,6.209034878165,110.000000000000
1409,0,-0.000000000000,0.000000000000,2.750070397924,8.959105276088,110.000000000000
1410,0,-0.000000000000,0.000000000000,2.750068989965,11.709174266053,110.000000000000
1411,0,-0.000000000000,0.000000000000,2.750067610165,14.459241876219,110.000000000000
1412,0,-0.000000000000,0.000000000000,2.750066257962,17.209308134181,110.000000000000
1413,0,-0.000000000000,0.000000000000,2.750064932803,19.959373066984,110.000000000000
1414,0,-0.000000000000,0.000000000000,2.750063634147,22.709436701131,110.000000000000
1415,0,-0.000000000000,0.000000000000,2.750062361464,25.459499062595,110.000000000000
1416,0,-0.000000000000,0.000000000000,2.750061114235,28.209560176829,110.000000000000
1417,0,-0.000000000000,0.000000000000,2.750059891950,30.959620068779,110.000000000000
1418,0,-0.000000000000,0.000000000000,2.750058694111,33.709678762890,110.000000000000
1419,0,-0.000000000000,0.000000000000,2.750057520229,36.459736283119,110.000000000000
1420,0,-0.000000000000,0.000000000000,2.750056369824,39.209792652943,110.000000000000
1421,0,-0.000000000000,0.000000000000,2.750055242428,41.959847895371,110.000000000000
1422,0,-0.000000000000,0.000000000000,2.750054137579,44.709902032950,110.000000000000
1423,0,-0.000000000000,0.000000000000,2.750053054828,47.459955087778,110.000000000000
1424,0,-0.000000000000,0.000000000000,2.750051993731,50.210007081509,110.000000000000
1425,0,-0.000000000000,0.000000000000,2.750050953856,52.960058035365,110.000000000000
1426,0,-0.000000000000,0.000000000000,2.750049934779,55.710107970144,110.000000000000
1427,0,-0.000000000000,0.000000000000,2.750048936084,58.460156906228,110.000000000000
1428,0,-0.000000000000,0.000000000000,2.750047957362,61.210204863590,110.000000000000
1429,0,-0.000000000000,0.000000000000,2.750046998215,63.960251861805,110.000000000000
1430,0,-0.000000000000,0.000000000000,2.750046058251,66.710297920055,110.000000000000
1431,0,-0.000000000000,0.000000000000,2.750045137085,69.460343057141,110.000000000000
1432,0,-0.000000000000,0.000000000000,2.750044234344,72.210387291485,110.000000000000
1433,0,-0.000000000000,0.000000000000,2.750043349657,74.960430641141,110.000000000000
1434,0,-0.000000000000,0.000000000000,2.750042482664,77.710473123805,110.000000000000
1435,0,-0.000000000000,0.000000000000,2.750041633010,80.460514756816,110.000000000000
1436,0,-0.000000000000,0.000000000000,2.750040800350,83.210555557166,110.000000000000
1437,0,-0.000000000000,0.000000000000,2.750039984343,85.960595541509,110.000000000000
1374,0,-0.000000000000,0.000000000000,3.000243879021,0.200604702299,110.000000000000
1375,0,-0.000000000000,0.000000000000,3.000239001440,3.200843703740,110.000000000000
1376,0,-0.000000000000,0.000000000000,3.000234221412,6.201077925151,110.000000000000
1377,0,-0.000000000000,0.000000000000,3.000229536984,9.201307462135,110.000000000000
1378,0,-0.000000000000,0.000000000000,3.000224946244,12.201532408379,110.000000000000
1379,0,-0.000000000000,0.000000000000,3.000220447319,15.201752855698,110.000000000000
1380,0,-0.000000000000,0.000000000000,3.000216038373,18.201968894070,110.000000000000
1381,0,-0.000000000000,0.000000000000,3.000211717605,21.202180611676,110.000000000000
1382,0,-0.000000000000,0.000000000000,3.000207483253,24.202388094929,110.000000000000
1383,0,-0.000000000000,0.000000000000,3.000203333588,27.202591428517,110.000000000000
1384,0,-0.000000000000,0.000000000000,3.000199266916,30.202790695433,110.000000000000
1385,0,-0.000000000000,0.000000000000,3.000195281578,33.202985977011,110.000000000000
1386,0,-0.000000000000,0.000000000000,3.000191375946,36.203177352957,110.000000000000
1387,0,-0.000000000000,0.000000000000,3.000187548428,39.203364901385,110.000000000000
1388,0,-0.000000000000,0.000000000000,3.000183797459,42.203548698843,110.000000000000
1389,0,-0.000000000000,0.000000000000,3.000180121510,45.203728820353,110.000000000000
1390,0,-0.000000000000,0.000000000000,3.000176519080,48.203905339433,110.000000000000
1391,0,-0.000000000000,0.000000000000,3.000172988698,51.204078328131,110.000000000000
1392,0,-0.000000000000,0.000000000000,3.000169528924,54.204247857054,110.000000000000
1393,0,-0.000000000000,0.000000000000,3.000166138345,57.204413995400,110.000000000000
1394,0,-0.000000000000,0.000000000000,3.000162815578,60.204576810979,110.000000000000
1395,0,-0.000000000000,0.000000000000,3.000159559267,63.204736370246,110.000000000000
1396,0,-0.000000000000,0.000000000000,3.000156368082,66.204892738327,110.000000000000
1397,0,-0.000000000000,0.000000000000,3.000153240720,69.205045979047,110.000000000000
1398,0,-0.000000000000,0.000000000000,3.000150175906,72.205196154953,110.000000000000
1399,0,-0.000000000000,0.000000000000,3.000147172388,75.205343327340,110.000000000000
1400,0,-0.000000000000,0.000000000000,3.000144228940,78.205487556280,110.000000000000
1401,0,-0.000000000000,0.000000000000,3.000141344361,81.205628900641,110.000000000000
1402,0,-0.000000000000,0.000000000000,3.000138517474,84.205767418115,110.000000000000
1357,0,-0.000000000000,0.000000000001,3.250517076122,1.437218044333,110.000000000000
1358,0,-0.000000000000,0.000000000001,3.250506734600,4.687724778933,110.000000000000
1359,0,-0.000000000000,0.000000000001,3.250496599908,7.938221378840,110.000000000000
1360,0,-0.000000000000,0.000000000001,3.250486667910,11.188708046750,110.000000000000
1361,0,-0.000000000000,0.000000000001,3.250476934551,14.439184981302,110.000000000000
1362,0,-0.000000000000,0.000000000001,3.250467395861,17.689652377162,110.000000000000
1363,0,-0.000000000000,0.000000000001,3.250458047943,20.940110425106,110.000000000000
1364,0,-0.000000000000,0.000000000001,3.250448886984,24.190559312090,110.000000000000
1365,0,-0.000000000000,0.000000000001,3.250439909245,27.440999221335,110.000000000000
1366,0,-0.000000000000,0.000000000001,3.250431111060,30.691430332395,110.000000000000
1367,0,-0.000000000000,0.000000000001,3.250422488839,33.941852821233,110.000000000000
1368,0,-0.000000000000,0.000000000001,3.250414039062,37.192266860295,110.000000000000
1369,0,-0.000000000000,0.000000000000,3.250405758281,40.442672618576,110.000000000000
1370,0,-0.000000000000,0.000000000000,3.250397643115,43.693070261691,110.000000000000
1371,0,-0.000000000000,0.000000000000,3.250389690253,46.943459951944,110.000000000000
1372,0,-0.000000000000,0.000000000000,3.250381896448,50.193841848391,110.000000000000
1373,0,-0.000000000000,0.000000000000,3.250374258519,53.444216106910,110.000000000000
1374,0,-0.000000000000,0.000000000000,3.250366773349,56.694582880259,110.000000000000
1375,0,-0.000000000000,0.000000000000,3.250359437881,59.944942318140,110.000000000000
1376,0,-0.000000000000,0.000000000000,3.250352249124,63.195294567264,110.000000000000
1377,0,-0.000000000000,0.000000000000,3.250345204141,66.445639771405,110.000000000000
1378,0,-0.000000000000,0.000000000000,3.250338300059,69.695978071464,110.000000000000
1379,0,-0.000000000000,0.000000000000,3.250331534057,72.946309605521,110.000000000000
1380,0,-0.000000000000,0.000000000000,3.250324903376,76.196634508897,110.000000000000
1381,0,-0.000000000000,0.000000000000,3.250318405309,79.446952914206,110.000000000000
1382,0,-0.000000000000,0.000000000000,3.250312037203,82.697264951408,110.000000000000
1383,0,-0.000000000000,0.000000000000,3.250305796458,85.947570747866,110.000000000000
1334,0,-0.000000000000,0.000000000002,3.500891930680,1.168850171004,110.000000000000
1335,0,-0.000000000000,0.000000000002,3.500874092067,4.669724263071,110.000000000000
1336,0,-0.000000000000,0.000000000002,3.500856610225,8.170580873296,110.000000000000
1337,0,-0.000000000000,0.000000000002,3.500839478021,11.671420351316,110.000000000000
1338,0,-0.000000000000,0.000000000001,3.500822688460,15.172243039777,110.000000000000
1339,0,-0.000000000000,0.000000000001,3.500806234691,18.673049274468,110.000000000000
1340,0,-0.000000000000,0.000000000001,3.500790109997,22.173839384465,110.000000000000
1341,0,-0.000000000000,0.000000000001,3.500774307797,25.674613692262,110.000000000000
1342,0,-0.000000000000,0.000000000001,3.500758821642,29.175372513904,110.000000000000
1343,0,-0.000000000000,0.000000000001,3.500743645208,32.676116159112,110.000000000000
1344,0,-0.000000000000,0.000000000001,3.500728772304,36.176844931416,110.000000000000
1345,0,-0.000000000000,0.000000000001,3.500714196859,39.677559128275,110.000000000000
1346,0,-0.000000000000,0.000000000001,3.500699912921,43.178259041196,110.000000000000
1347,0,-0.000000000000,0.000000000000,3.500685914662,46.678944955858,110.000000000000
1348,0,-0.000000000000,0.000000000000,3.500672196370,50.179617152228,110.000000000000
1349,0,-0.000000000000,0.000000000000,3.500658752442,53.680275904670,110.000000000000
1350,0,-0.000000000000,0.000000000000,3.500645577393,57.180921482063,110.000000000000
1351,0,-0.000000000000,0.000000000000,3.500632665845,60.681554147908,110.000000000000
1352,0,-0.000000000000,0.000000000000,3.500620012529,64.182174160437,110.000000000000
1353,0,-0.000000000000,0.000000000000,3.500607612278,67.682781772715,110.000000000000
1354,0,-0.000000000000,0.000000000000,3.500595460032,71.183377232747,110.000000000000
1355,0,-0.000000000000,0.000000000000,3.500583550832,74.683960783578,110.000000000000
1356,0,-0.000000000000,-0.000000000000,3.500571879815,78.184532663393,110.000000000000
1357,0,-0.000000000000,-0.000000000000,3.500560442219,81.685093105612,110.000000000000
1358,0,-0.000000000000,-0.000000000000,3.500549233374,85.185642338987,110.000000000000
1317,0,-0.000000000000,0.000000000004,3.751314074172,1.648165139890,110.000000000000
1318,0,-0.000000000000,0.000000000004,3.751287792689,5.399452932579,110.000000000000
1319,0,-0.000000000000,0.000000000003,3.751262036835,9.150714969414,110.000000000000
1320,0,-0.000000000000,0.000000000003,3.751236796098,12.901951765512,110.000000000000
1321,0,-0.000000000000,0.000000000003,3.751212060176,16.653163825689,110.000000000000
1322,0,-0.000000000000,0.000000000002,3.751187818973,20.404351644662,110.000000000000
1323,0,-0.000000000000,0.000000000002,3.751164062593,24.155515707255,110.000000000000
1324,0,-0.000000000000,0.000000000002,3.751140781342,27.906656488596,110.000000000000
1325,0,-0.000000000000,0.000000000001,3.751117965714,31.657774454311,110.000000000000
1326,0,-0.000000000000,0.000000000001,3.751095606400,35.408870060711,110.000000000000
1327,0,-0.000000000000,0.000000000001,3.751073694273,39.159943754984,110.000000000000
1328,0,-0.000000000000,0.000000000001,3.751052220387,42.910995975371,110.000000000000
1329,0,-0.000000000000,0.000000000001,3.751031175979,46.662027151350,110.000000000000
1330,0,-0.000000000000,0.000000000000,3.751010552460,50.413037703809,110.000000000000
1331,0,-0.000000000000,0.000000000000,3.750990341410,54.164028045220,110.000000000000
1332,0,-0.000000000000,0.000000000000,3.750970534582,57.914998579802,110.000000000000
1333,0,-0.000000000000,0.000000000000,3.750951123890,61.665949703692,110.000000000000
1334,0,-0.000000000000,-0.000000000000,3.750932101413,65.416881805105,110.000000000000
1335,0,-0.000000000000,-0.000000000000,3.750913459384,69.167795264490,110.000000000000
1336,0,-0.000000000000,-0.000000000000,3.750895190197,72.918690454686,110.000000000000
1337,0,-0.000000000000,-0.000000000000,3.750877286393,76.669567741079,110.000000000000
1338,0,-0.000000000000,-0.000000000000,3.750859740665,80.420427481744,110.000000000000
1339,0,-0.000000000000,-0.000000000000,3.750842545852,84.171270027596,110.000000000000
1303,0,-0.000000000001,0.000000000009,4.003722486927,0.030152914906,110.000000000000
1304,0,-0.000000000001,0.000000000008,4.003648037188,4.033800952095,110.000000000000
1305,0,-0.000000000001,0.000000000007,4.003575076445,8.037376028539,110.000000000000
1306,0,-0.000000000001,0.000000000006,4.003503574916,12.040879603455,110.000000000000
1307,0,-0.000000000001,0.000000000005,4.003433503417,16.044313106873,110.000000000000
1308,0,-0.000000000001,0.000000000005,4.003364833349,20.047677940222,110.000000000000
1309,0,-0.000000000001,0.000000000004,4.003297536683,24.050975476904,110.000000000000
1310,0,-0.000000000001,0.000000000003,4.003231585948,28.054207062852,110.000000000000
1311,0,-0.000000000001,0.000000000003,4.003166954230,32.057374017082,110.000000000000
1312,0,-0.000000000001,0.000000000002,4.003103615145,36.060477632227,110.000000000000
1313,0,-0.000000000001,0.000000000002,4.003041542842,40.063519175069,110.000000000000
1314,0,-0.000000000000,0.000000000001,4.002980711985,44.066499887054,110.000000000000
1315,0,-0.000000000000,0.000000000001,4.002921097745,48.069420984800,110.000000000000
1316,0,-0.000000000000,0.000000000000,4.002862675790,52.072283660590,110.000000000000
1317,0,-0.000000000000,0.000000000000,4.002805422275,56.075089082865,110.000000000000
1318,0,-0.000000000000,-0.000000000000,4.002749313829,60.077838396694,110.000000000000
1319,0,-0.000000000000,-0.000000000000,4.002694327553,64.080532724247,110.000000000000
1320,0,-0.000000000000,-0.000000000001,4.002640441001,68.083173165249,110.000000000000
1321,0,-0.000000000000,-0.000000000001,4.002587632182,72.085760797430,110.000000000000
1322,0,-0.000000000000,-0.000000000001,4.002535879538,76.088296676968,110.000000000000
1323,0,-0.000000000000,-0.000000000001,4.002485161947,80.090781838915,110.000000000000
1324,0,-0.000000000000,-0.000000000001,4.002435458708,84.093217297624,110.000000000000
1292,0,-0.000000000002,0.000000000014,4.251922122918,1.118370751349,110.000000000000
1293,0,-0.000000000002,0.000000000013,4.251883680460,5.370254431808,110.000000000000
1294,0,-0.000000000002,0.000000000011,4.251846006850,9.622100438659,110.000000000000
1295,0,-0.000000000001,0.000000000010,4.251809086713,13.873909525372,110.000000000000
1296,0,-0.000000000001,0.000000000008,4.251772904979,18.125682430351,110.000000000000
1297,0,-0.000000000001,0.000000000007,4.251737446879,22.377419877231,110.000000000000
1298,0,-0.000000000001,0.000000000006,4.251702697942,26.629122575173,110.000000000000
1299,0,-0.000000000001,0.000000000005,4.251668643983,30.880791219156,110.000000000000
1300,0,-0.000000000001,0.000000000004,4.251635271103,35.132426490259,110.000000000000
1301,0,-0.000000000001,0.000000000003,4.251602565681,39.384029055941,110.000000000000
1302,0,-0.000000000001,0.000000000002,4.251570514368,43.635599570309,110.000000000000
1303,0,-0.000000000001,0.000000000001,4.251539104081,47.887138674389,110.000000000000
1304,0,-0.000000000001,0.000000000001,4.251508321999,52.138646996388,110.000000000000
1305,0,-0.000000000001,-0.000000000000,4.251478155559,56.390125151947,110.000000000000
1306,0,-0.000000000001,-0.000000000001,4.251448592448,60.641573744394,110.000000000000
1307,0,-0.000000000001,-0.000000000001,4.251419620599,64.892993364993,110.000000000000
1308,0,-0.000000000000,-0.000000000002,4.251391228187,69.144384593180,110.000000000000
1309,0,-0.000000000000,-0.000000000002,4.251363403623,73.395747996803,110.000000000000
1310,0,-0.000000000000,-0.000000000002,4.251336135550,77.647084132353,110.000000000000
1311,0,-0.000000000000,-0.000000000003,4.251309412839,81.898393545193,110.000000000000
1312,0,-0.000000000000,-0.000000000003,4.251283224583,86.149676769775,110.000000000000
1282,0,-0.000000000003,0.000000000024,4.501776712431,3.125495865196,110.000000000000
1283,0,-0.000000000003,0.000000000022,4.501741178182,7.627237043379,110.000000000000
1284,0,-0.000000000003,0.000000000019,4.501706354619,12.128943397998,110.000000000000
1285,0,-0.000000000003,0.000000000016,4.501672227526,16.630615625525,110.000000000000
1286,0,-0.000000000002,0.000000000014,4.501638782976,21.132254408501,110.000000000000
1287,0,-0.000000000002,0.000000000012,4.501606007317,25.633860415817,110.000000000000
1288,0,-0.000000000002,0.000000000010,4.501573887170,30.135434302988,110.000000000000
1289,0,-0.000000000002,0.000000000008,4.501542409427,34.636976712414,110.000000000000
1290,0,-0.000000000002,0.000000000006,4.501511561239,39.138488273653,110.000000000000
1291,0,-0.000000000002,0.000000000004,4.501481330013,43.639969603666,110.000000000000
1292,0,-0.000000000001,0.000000000003,4.501451703413,48.141421307079,110.000000000000
1293,0,-0.000000000001,0.000000000002,4.501422669345,52.642843976424,110.000000000000
1294,0,-0.000000000001,0.000000000000,4.501394215958,57.144238192383,110.000000000000
1295,0,-0.000000000001,-0.000000000001,4.501366331639,61.645604524021,110.000000000000
1296,0,-0.000000000001,-0.000000000002,4.501339005006,66.146943529028,110.000000000000
1297,0,-0.000000000001,-0.000000000003,4.501312224906,70.648255753934,110.000000000000
1298,0,-0.000000000001,-0.000000000003,4.501285980408,75.149541734342,110.000000000000
1299,0,-0.000000000001,-0.000000000004,4.501260260799,79.650801995141,110.000000000000
1300,0,-0.000000000001,-0.000000000005,4.501235055584,84.152037050725,110.000000000000
1276,0,-0.000000000007,0.000000000056,4.751092780619,3.909008524007,110.000000000000
1277,0,-0.000000000006,0.000000000050,4.751070925006,8.660079449013,110.000000000000
1278,0,-0.000000000006,0.000000000043,4.751049506506,13.411128955520,110.000000000000
1279,0,-0.000000000006,0.000000000038,4.751028516376,18.162157471896,110.000000000000
1280,0,-0.000000000005,0.000000000032,4.751007946049,22.913165417944,110.000000000000
1281,0,-0.000000000005,0.000000000027,4.750987787128,27.664153205072,110.000000000000
1282,0,-0.000000000005,0.000000000023,4.750968031385,32.415121236457,110.000000000000
1283,0,-0.000000000004,0.000000000018,4.750948670757,37.166069907215,110.000000000000
1284,0,-0.000000000004,0.000000000014,4.750929697342,41.916999604557,110.000000000000
1285,0,-0.000000000004,0.000000000010,4.750911103396,46.667910707952,110.000000000000
1286,0,-0.000000000003,0.000000000007,4.750892881328,51.418803589280,110.000000000000
1287,0,-0.000000000003,0.000000000004,4.750875023701,56.169678612981,110.000000000000
1288,0,-0.000000000003,0.000000000001,4.750857523227,60.920536136208,110.000000000000
1289,0,-0.000000000003,-0.000000000001,4.750840372762,65.671376508970,110.000000000000
1290,0,-0.000000000002,-0.000000000004,4.750823565307,70.422200074277,110.000000000000
1291,0,-0.000000000002,-0.000000000006,4.750807094001,75.173007168278,110.000000000000
1292,0,-0.000000000002,-0.000000000008,4.750790952121,79.923798120399,110.000000000000
1293,0,-0.000000000002,-0.000000000009,4.750775133079,84.674573253478,110.000000000000
1264,0,-0.000000000008,0.000000000072,5.003724299066,4.030064120095,110.000000000000
1265,0,-0.000000000008,0.000000000064,5.003649813084,9.033713933180,110.000000000000
1266,0,-0.000000000007,0.000000000057,5.003576816823,14.037290750003,110.000000000000
1267,0,-0.000000000007,0.000000000050,5.003505280486,19.040796030489,110.000000000000
1268,0,-0.000000000007,0.000000000043,5.003435174877,24.044231205366,110.000000000000
1269,0,-0.000000000006,0.000000000037,5.003366471379,29.047597676745,110.000000000000
1270,0,-0.000000000006,0.000000000031,5.003299141952,34.050896818697,110.000000000000
1271,0,-0.000000000005,0.000000000025,5.003233159113,39.054129977810,110.000000000000
1272,0,-0.000000000005,0.000000000020,5.003168495930,44.057298473740,110.000000000000
1273,0,-0.000000000005,0.000000000016,5.003105126012,49.060403599752,110.000000000000
1274,0,-0.000000000004,0.000000000011,5.003043023492,54.063446623243,110.000000000000
1275,0,-0.000000000004,0.000000000007,5.002982163022,59.066428786265,110.000000000000
1276,0,-0.000000000004,0.000000000004,5.002922519761,64.069351306026,110.000000000000
1277,0,-0.000000000003,0.000000000000,5.002864069366,69.072215375392,110.000000000000
1278,0,-0.000000000003,-0.000000000002,5.002806787979,74.075022163371,110.000000000000
1279,0,-0.000000000003,-0.000000000005,5.002750652219,79.077772815590,110.000000000000
1280,0,-0.000000000002,-0.000000000007,5.002695639174,84.080468454765,110.000000000000
1257,0,-0.000000000012,0.000000000110,5.251727400660,4.127912142001,110.000000000000
1258,0,-0.000000000011,0.000000000099,5.251692852647,9.379604994648,110.000000000000
1259,0,-0.000000000011,0.000000000088,5.251658995594,14.631263990242,110.000000000000
1260,0,-0.000000000010,0.000000000078,5.251625815682,19.882889805923,110.000000000000
1261,0,-0.000000000010,0.000000000068,5.251593299368,25.134483105291,110.000000000000
1262,0,-0.000000000009,0.000000000059,5.251561433381,30.386044538672,110.000000000000
1263,0,-0.000000000009,0.000000000050,5.251530204713,35.637574743385,110.000000000000
1264,0,-0.000000000008,0.000000000042,5.251499600619,40.889074344004,110.000000000000
1265,0,-0.000000000008,0.000000000034,5.251469608606,46.140543952611,110.000000000000
1266,0,-0.000000000007,0.000000000027,5.251440216434,51.391984169045,110.000000000000
1267,0,-0.000000000007,0.000000000021,5.251411412106,56.643395581151,110.000000000000
1268,0,-0.000000000006,0.000000000015,5.251383183863,61.894778765014,110.000000000000
1269,0,-0.000000000006,0.000000000009,5.251355520187,67.146134285201,110.000000000000
1270,0,-0.000000000005,0.000000000004,5.251328409782,72.397462694983,110.000000000000
1271,0,-0.000000000005,-0.000000000001,5.251301841587,77.648764536570,110.000000000000
1272,0,-0.000000000004,-0.000000000005,5.251275804755,82.900040341325,110.000000000000
1250,0,-0.000000000017,0.000000000170,5.503759323319,4.028347931684,110.000000000000
1251,0,-0.000000000016,0.000000000154,5.503684136853,9.532032068537,110.000000000000
1252,0,-0.000000000015,0.000000000138,5.503610454116,15.035642522652,110.000000000000
1253,0,-0.000000000015,0.000000000123,5.503538245034,20.539180767686,110.000000000000
1254,0,-0.000000000014,0.000000000109,5.503467480133,26.042648247819,110.000000000000
1255,0,-0.000000000014,0.000000000096,5.503398130530,31.546046378349,110.000000000000
1256,0,-0.000000000013,0.000000000083,5.503330167920,37.049376546269,110.000000000000
1257,0,-0.000000000012,0.000000000071,5.503263564561,42.552640110830,110.000000000000
1258,0,-0.000000000011,0.000000000059,5.503198293270,48.055838404100,110.000000000000
1259,0,-0.000000000011,0.000000000048,5.503134327404,53.558972731504,110.000000000000
1260,0,-0.000000000010,0.000000000038,5.503071640857,59.062044372361,110.000000000000
1261,0,-0.000000000009,0.000000000029,5.503010208039,64.565054580400,110.000000000000
1262,0,-0.000000000009,0.000000000021,5.502950003879,70.068004584279,110.000000000000
1263,0,-0.000000000008,0.000000000013,5.502891003801,75.570895588080,110.000000000000
1264,0,-0.000000000007,0.000000000006,5.502833183725,81.073728771805,110.000000000000
1244,0,-0.000000000022,0.000000000256,5.761813399109,3.883698217996,110.000000000000
1245,0,-0.000000000022,0.000000000234,5.761577131127,9.645275349123,110.000000000000
1246,0,-0.000000000021,0.000000000213,5.761345588504,15.406620937627,110.000000000000
1247,0,-0.000000000021,0.000000000193,5.761118676734,21.167739614361,110.000000000000
1248,0,-0.000000000020,0.000000000173,5.760896303199,26.928635917560,110.000000000000
1249,0,-0.000000000019,0.000000000154,5.760678377136,32.689314294695,110.000000000000
1250,0,-0.000000000018,0.000000000135,5.760464809593,38.449779104288,110.000000000000
1251,0,-0.000000000017,0.000000000118,5.760255513401,44.210034617689,110.000000000000
1252,0,-0.000000000017,0.000000000101,5.760050403132,49.970085020822,110.000000000000
1253,0,-0.000000000016,0.000000000085,5.759849395070,55.729934415892,110.000000000000
1254,0,-0.000000000015,0.000000000071,5.759652407169,61.489586823061,110.000000000000
1255,0,-0.000000000014,0.000000000057,5.759459359025,67.249046182086,110.000000000000
1256,0,-0.000000000013,0.000000000044,5.759270171845,73.008316353931,110.000000000000
1257,0,-0.000000000012,0.000000000032,5.759084768408,78.767401122339,110.000000000000
1258,0,-0.000000000011,0.000000000021,5.758903073040,84.526304195378,110.000000000000
1242,0,-0.000000000036,0.000000000471,6.005980198830,0.919525031632,110.000000000000
1243,0,0.022176041616,0.022176042087,6.005860594854,6.925385626486,110.000000000000
1244,0,0.041931232631,0.064107274718,6.005743382957,12.931129009443,110.000000000000
1245,0,0.059360095490,0.123467370208,6.005628515298,18.936757524741,110.000000000000
1246,0,0.074565157777,0.198032527985,6.005515944992,24.942273469732,110.000000000000
1247,0,0.087655380664,0.285687908649,6.005405626092,30.947679095824,110.000000000000
1248,0,0.098744696383,0.384432605032,6.005297513570,36.952976609394,110.000000000000
1249,0,0.107950654782,0.492383259814,6.005191563299,42.958168172693,110.000000000000
1250,0,0.115393178198,0.607776438012,6.005087732033,48.963255904726,110.000000000000
1251,0,0.121193423168,0.728969861181,6.004985977392,54.968241882118,110.000000000000
1252,0,0.125472746831,0.854442608011,6.004886257844,60.973128139962,110.000000000000
1253,0,0.128351775296,0.982794383308,6.004788532687,66.977916672649,110.000000000000
1254,0,0.129949570786,1.112743954094,6.004692762034,72.982609434683,110.000000000000
1255,0,0.130382893898,1.243126847992,6.004598906793,78.987208341476,110.000000000000
1256,0,0.129765557022,1.372892405014,6.004506928657,84.991715270133,110.000000000000
1238,0,-0.000000000043,0.000000000575,6.255007499921,5.217187278187,110.000000000000
1239,0,0.101858979734,0.101858980309,6.254907349923,11.472094628109,110.000000000000
1240,0,0.192702357177,0.294561337485,6.254809202924,17.726903831034,110.000000000000
1241,0,0.272922124628,0.567483462114,6.254713018866,23.981616849900,110.000000000000
1242,0,0.342954153374,0.910437615488,6.254618758489,30.236235608388,110.000000000000
1243,0,0.403270391956,1.313708007445,6.254526383319,36.490761991707,110.000000000000
1244,0,0.454371563140,1.768079570585,6.254435855652,42.745197847360,110.000000000000
1245,0,0.496780366763,2.264859937348,6.254347138539,48.999544985899,110.000000000000
1246,0,0.531035191000,2.795895128348,6.254260195769,55.253805181668,110.000000000000
1247,0,0.557684330370,3.353579458717,6.254174991853,61.507980173521,110.000000000000
1248,0,0.577280704983,3.930860163700,6.254091492016,67.762071665537,110.000000000000
1249,0,0.590377072176,4.521237235876,6.254009662176,74.016081327713,110.000000000000
1250,0,0.597521718703,5.118758954580,6.253929468933,80.270010796645,110.000000000000
1230,0,-0.000000000035,0.000000000517,6.502036057183,6.112787972373,110.000000000000
1231,0,0.187098598344,0.187098598861,6.501995336039,12.614783308412,110.000000000000
1232,0,0.353952134325,0.541050733186,6.501955429319,19.116738737730,110.000000000000
1233,0,0.501229331356,1.042280064543,6.501916320732,25.618655058462,110.000000000000
1234,0,0.629691163262,1.671971227804,6.501877994318,32.120533052780,110.000000000000
1235,0,0.740175439913,2.412146667717,6.501840434431,38.622373487211,110.000000000000
1236,0,0.833582310248,3.245728977966,6.501803625742,45.124177112953,110.000000000000
1237,0,0.910860708748,4.156589686713,6.501767553227,51.625944666180,110.000000000000
1238,0,0.972995761155,5.129585447869,6.501732202163,58.127676868343,110.000000000000
1239,0,1.020997155879,6.150582603747,6.501697558120,64.629374426463,110.000000000000
1240,0,1.055888478993,7.206471082741,6.501663606957,71.131038033420,110.000000000000
1241,0,1.078697503156,8.285168585897,6.501630334818,77.632668368239,110.000000000000
1242,0,1.090447413940,9.375615999837,6.501597728122,84.134266096360,110.000000000000
1226,0,-0.000000000039,0.000000000629,6.755145547544,6.460422944664,110.000000000000
1227,0,0.280837508539,0.280837509168,6.755042636593,13.215465581257,110.000000000000
1228,0,0.531180500017,0.812018009186,6.754941783861,19.970407365119,110.000000000000
1229,0,0.751965471128,1.563983480313,6.754842948184,26.725250313303,110.000000000000
1230,0,0.944284918488,2.508268398801,6.754746089220,33.479996402523,110.000000000000
1231,0,1.109362496540,3.617630895342,6.754651167436,40.234647569960,110.000000000000
1232,0,1.248529553770,4.866160449112,6.754558144087,46.989205714047,110.000000000000
1233,0,1.363203107504,6.229363556616,6.754466981205,53.743672695253,110.000000000000
1234,0,1.454865299392,7.684228856008,6.754377641582,60.498050336834,110.000000000000
1235,0,1.525044356951,9.209273212959,6.754290088750,67.252340425584,110.000000000000
1236,0,1.575297071261,10.784570284220,6.754204286975,74.006544712559,110.000000000000
1237,0,1.607192787105,12.391763071325,6.754120201235,80.760664913794,110.000000000000
1226,0,-0.000000000055,0.000000001044,7.005945039150,2.921247856019,110.000000000000
1227,0,0.380111321697,0.380111322742,7.005826138366,9.927073994385,110.000000000000
1228,0,0.718834197412,1.098945520153,7.005709615599,16.932783609984,110.000000000000
1229,0,1.017342312604,2.116287832758,7.005595423287,23.938379033271,110.000000000000
1230,0,1.277044266884,3.393332099642,7.005483514821,30.943862548092,110.000000000000
1231,0,1.499547719817,4.892879819458,7.005373844524,37.949236392617,110.000000000000
1232,0,1.686625381368,6.579505200827,7.005266367634,44.954502760251,110.000000000000
1233,0,1.840182960322,8.419688161149,7.005161040282,51.959663800532,110.000000000000
1234,0,1.962229155557,10.381917316706,7.005057819476,58.964721620008,110.000000000000
1235,0,2.054847748645,12.436765065352,7.004956663086,65.969678283095,110.000000000000
1236,0,2.120171831974,14.556936897325,7.004857529825,72.974535812919,110.000000000000
1237,0,2.160360184434,16.717297081759,7.004760379228,79.979296192148,110.000000000000
1219,0,-0.000000000042,0.000000000886,7.253182479246,2.806613291252,110.000000000000
1220,0,0.484201408054,0.484201408940,7.253118829662,10.059732120914,110.000000000000
1221,0,0.915565119610,1.399766528550,7.253056453068,17.312788573982,110.000000000000
1222,0,1.295464650349,2.695231178899,7.252995324007,24.565783897989,110.000000000000
1223,0,1.625602836811,4.320834015710,7.252935417527,31.818719315516,110.000000000000
1224,0,1.907963446972,6.228797462682,7.252876709176,39.071596024692,110.000000000000
1225,0,2.144765084383,8.373562547065,7.252819174993,46.324415199685,110.000000000000
1226,0,2.338417574413,10.711980121477,7.252762791493,53.577177991177,110.000000000000
1227,0,2.491480979819,13.203461101297,7.252707535663,60.829885526840,110.000000000000
1228,0,2.606627354276,15.810088455572,7.252653384950,68.082538911790,110.000000000000
1229,0,2.686605306774,18.496693762346,7.252600317251,75.335139229041,110.000000000000
1230,0,2.734207417034,21.230901179380,7.252548310906,82.587687539947,110.000000000000
1220,0,-0.000000000056,0.000000001398,7.506443405922,1.396827884146,110.000000000000
1221,0,0.597236908567,0.597236909965,7.506314537804,8.903142421950,110.000000000000
1222,0,1.129087150292,1.726324060257,7.506188247048,16.409330668997,110.000000000000
1223,0,1.597100555279,3.323424615536,7.506064482106,23.915395151104,110.000000000000
1224,0,2.003271142358,5.326695757894,7.505943192465,31.421338343568,110.000000000000
1225,0,2.349973943464,7.676669701358,7.505824328615,38.927162672184,110.000000000000
1226,0,2.639904574593,10.316574275951,7.505707842043,46.432870514227,110.000000000000
1227,0,2.876021845720,13.192596121671,7.505593685202,53.938464199429,110.000000000000
1228,0,3.061493644339,16.254089766010,7.505481811498,61.443946010927,110.000000000000
1229,0,3.199646272964,19.453736038974,7.505372175268,68.949318186195,110.000000000000
1230,0,3.293917370514,22.747653409487,7.505264731763,76.454582917957,110.000000000000
1231,0,3.347812500759,26.095465910246,7.505159437128,83.959742355085,110.000000000000
1215,0,-0.000000000043,0.000000001122,7.765668977638,6.694774870083,110.000000000000
1216,0,0.719652090392,0.719652091514,7.765355598085,14.460130468168,110.000000000000
1217,0,1.360201437523,2.079853529037,7.765048486123,22.225178954291,110.000000000000
1218,0,1.923344548751,4.003198077788,7.764747516401,29.989926470692,110.000000000000
1219,0,2.411360225549,6.414558303337,7.764452566073,37.754379036764,110.000000000000
1220,0,2.827029075604,9.241587378941,7.764163514751,45.518542551516,110.000000000000
1221,0,3.173556214371,12.415143593312,7.763880244456,53.282422795972,110.000000000000
1222,0,3.454497587828,15.869641181139,7.763602639567,61.046025435539,110.000000000000
1223,0,3.673690269648,19.543331450787,7.763330586776,68.809356022315,110.000000000000
1224,0,3.835187011928,23.378518462715,7.763063975040,76.572419997355,110.000000000000
1225,0,3.943195259205,27.321713721920,7.762802695539,84.335222692895,110.000000000000
1213,0,-0.000000000039,0.000000001228,8.018354674351,7.313175731170,110.000000000000
1214,0,0.845519635223,0.845519636451,8.017987580863,15.331163312033,110.000000000000
1215,0,1.597825559745,2.443345196196,8.017627829246,23.348791141279,110.000000000000
1216,0,2.258704032916,4.702049229112,8.017275272661,31.366066413940,110.000000000000
1217,0,2.830679832988,7.532729062099,8.016929767208,39.382996181148,110.000000000000
1218,0,3.316916908396,10.849645970496,8.016591171864,47.399587353011,110.000000000000
1219,0,3.721122573509,14.570768544004,8.016259348427,55.415846701438,110.000000000000
1220,0,4.047455855262,18.618224399266,8.015934161458,63.431780862895,110.000000000000
1221,0,4.300440494568,22.918664893835,8.015615478229,71.447396341124,110.000000000000
1222,0,4.484883008993,27.403547902827,8.015303168664,79.462699509788,110.000000000000
1211,0,-0.000000000030,0.000000001335,8.261527274765,3.397718310851,110.000000000000
1212,0,0.972745609664,0.972745610999,8.261296729269,11.659015040120,110.000000000000
1213,0,1.838048031556,2.810793642554,8.261070794684,19.920085834804,110.000000000000
1214,0,2.597719202410,5.408512844964,8.260849378790,28.180935213595,110.000000000000
1215,0,3.254481272425,8.662994117389,8.260632391215,36.441567604810,110.000000000000
1216,0,3.811847333639,12.474841451028,8.260419743390,44.701987348200,110.000000000000
1217,0,4.274005918880,16.748847369908,8.260211348523,52.962198696723,110.000000000000
1218,0,4.645710087537,21.394557457445,8.260007121552,61.222205818275,110.000000000000
1219,0,4.932171785206,26.326729242651,8.259806979121,69.482012797396,110.000000000000
1220,0,5.138962040797,31.465691283447,8.259610839539,77.741623636934,110.000000000000
1221,0,5.271917447909,36.737608731357,8.259418622748,86.001042259682,110.000000000000
1209,0,-0.000000000030,0.000000001380,8.516446005814,7.406700489445,110.000000000000
1210,0,1.112537445249,1.112537446629,8.516117085698,15.922817575142,110.000000000000
1211,0,2.101793415200,3.214330861830,8.515794743984,24.438612319126,110.000000000000
1212,0,2.969570280664,6.183901142494,8.515478849104,32.954091168230,110.000000000000
1213,0,3.718784311836,9.902685454330,8.515169272122,41.469260440352,110.000000000000
1214,0,4.353323014974,14.256008469304,8.514865886679,49.984126327032,110.000000000000
1215,0,4.877906414453,19.133914883757,8.514568568946,58.498694895977,110.000000000000
1216,0,5.297953363438,24.431868247195,8.514277197567,67.012972093544,110.000000000000
1217,0,5.619453804154,30.051322051349,8.513991653615,75.526963747160,110.000000000000
1218,0,5.848847742847,35.900169794196,8.513711820543,84.040675567704,110.000000000000
1212,0,-0.000000000037,0.000000001956,8.766462498135,8.405892365702,110.000000000000
1213,0,1.256024432902,1.256024434857,8.766133248173,17.172025613874,110.000000000000
1214,0,2.372490208821,3.628514643678,8.765810583209,25.937836197084,110.000000000000
1215,0,3.351124670188,6.979639313866,8.765494371545,34.703330568628,110.000000000000
1216,0,4.194993840364,11.174633154230,8.765184484114,43.468515052742,110.000000000000
1217,0,4.908334698550,16.082967852779,8.764880794432,52.233395847174,110.000000000000
1218,0,5.496391416349,21.579359269129,8.764583178543,60.997979025717,110.000000000000
1219,0,5.965256955703,27.544616224832,8.764291514972,69.762270540689,110.000000000000
1220,0,6.321721228694,33.866337453526,8.764005684673,78.526276225362,110.000000000000
1453,1,0.000000000000,-0.000000000002,2.000003780203,1.815800695013,90.000000000000
1454,1,0.000000000000,-0.000000000002,2.000003704599,3.815804399613,90.000000000000
1455,1,0.000000000000,-0.000000000002,2.000003630508,5.815808030120,90.000000000000
1456,1,0.000000000000,-0.000000000002,2.000003557897,7.815811588018,90.000000000000
1457,1,0.000000000000,-0.000000000002,2.000003486739,9.815815074757,90.000000000000
1458,1,0.000000000000,-0.000000000002,2.000003417004,11.815818491762,90.000000000000
1459,1,0.000000000000,-0.000000000002,2.000003348664,13.815821840426,90.000000000000
1460,1,0.000000000000,-0.000000000002,2.000003281692,15.815825122117,90.000000000000
1461,1,0.000000000000,-0.000000000002,2.000003216057,17.815828338175,90.000000000000
1462,1,0.000000000000,-0.000000000002,2.000003151736,19.815831489911,90.000000000000
1463,1,0.000000000000,-0.000000000002,2.000003088701,21.815834578613,90.000000000000
1464,1,0.000000000000,-0.000000000002,2.000003026928,23.815837605540,90.000000000000
1465,1,0.000000000000,-0.000000000001,2.000002966389,25.815840571929,90.000000000000
1466,1,0.000000000000,-0.000000000001,2.000002907061,27.815843478990,90.000000000000
1467,1,0.000000000000,-0.000000000001,2.000002848920,29.815846327910,90.000000000000
1468,1,0.000000000000,-0.000000000001,2.000002791941,31.815849119852,90.000000000000
1469,1,0.000000000000,-0.000000000001,2.000002736103,33.815851855954,90.000000000000
1470,1,0.000000000000,-0.000000000001,2.000002681380,35.815854537335,90.000000000000
1471,1,0.000000000000,-0.000000000001,2.000002627753,37.815857165088,90.000000000000
1472,1,0.000000000000,-0.000000000001,2.000002575198,39.815859740286,90.000000000000
1473,1,0.000000000000,-0.000000000001,2.000002523694,41.815862263980,90.000000000000
1474,1,0.000000000000,-0.000000000001,2.000002473220,43.815864737200,90.000000000000
1475,1,0.000000000000,-0.000000000001,2.000002423756,45.815867160956,90.000000000000
1476,1,0.000000000000,-0.000000000001,2.000002375280,47.815869536236,90.000000000000
1477,1,0.000000000000,-0.000000000001,2.000002327775,49.815871864011,90.000000000000
1478,1,0.000000000000,-0.000000000001,2.000002281220,51.815874145231,90.000000000000
1479,1,0.000000000000,-0.000000000001,2.000002235595,53.815876380826,90.000000000000
1480,1,0.000000000000,-0.000000000001,2.000002190883,55.815878571709,90.000000000000
1481,1,0.000000000000,-0.000000000001,2.000002147066,57.815880718775,90.000000000000
1482,1,0.000000000000,-0.000000000001,2.000002104125,59.815882822899,90.000000000000
1483,1,0.000000000000,-0.000000000001,2.000002062041,61.815884884941,90.000000000000
1484,1,0.000000000000,-0.000000000001,2.000002020801,63.815886905742,90.000000000000
1485,1,0.000000000000,-0.000000000001,2.000001980385,65.815888886127,90.000000000000
1486,1,0.000000000000,-0.000000000001,2.000001940777,67.815890826904,90.000000000000
1487,1,0.000000000000,-0.000000000001,2.000001901962,69.815892728866,90.000000000000
1398,1,-0.000000000000,0.000000000000,2.250037461929,0.314150290491,90.000000000000
1399,1,-0.000000000000,0.000000000000,2.250036712690,2.564187003181,90.000000000000
1400,1,-0.000000000000,0.000000000000,2.250035978436,4.814222981617,90.000000000000
1401,1,-0.000000000000,0.000000000000,2.250035258868,7.064258240484,90.000000000000
1402,1,-0.000000000000,0.000000000000,2.250034553690,9.314292794174,90.000000000000
1403,1,-0.000000000000,0.000000000000,2.250033862616,11.564326656790,90.000000000000
1404,1,-0.000000000000,0.000000000000,2.250033185364,13.814359842154,90.000000000000
1405,1,-0.000000000000,0.000000000000,2.250032521657,16.064392363811,90.000000000000
1406,1,-0.000000000000,0.000000000000,2.250031871224,18.314424235035,90.000000000000
1407,1,-0.000000000000,0.000000000000,2.250031233799,20.564455468834,90.000000000000
1408,1,-0.000000000000,0.000000000000,2.250030609123,22.814486077957,90.000000000000
1409,1,-0.000000000000,0.000000000000,2.250029996941,25.064516074897,90.000000000000
1410,1,-0.000000000000,0.000000000000,2.250029397002,27.314545471899,90.000000000000
1411,1,-0.000000000000,0.000000000000,2.250028809061,29.564574280961,90.000000000000
1412,1,-0.000000000000,0.000000000000,2.250028232881,31.814602513841,90.000000000000
1413,1,-0.000000000000,0.000000000000,2.250027668223,34.064630182064,90.000000000000
1414,1,-0.000000000000,0.000000000000,2.250027114858,36.314657296923,90.000000000000
1415,1,-0.000000000000,0.000000000000,2.250026572561,38.564683869484,90.000000000000
1416,1,-0.000000000000,0.000000000000,2.250026041110,40.814709910594,90.000000000000
1417,1,-0.000000000000,0.000000000000,2.250025520288,43.064735430882,90.000000000000
1418,1,-0.000000000000,0.000000000000,2.250025009882,45.314760440764,90.000000000000
1419,1,-0.000000000000,0.000000000000,2.250024509684,47.564784950448,90.000000000000
1420,1,-0.000000000000,0.000000000000,2.250024019491,49.814808969939,90.000000000000
1421,1,-0.000000000000,-0.000000000000,2.250023539101,52.064832509040,90.000000000000
1422,1,-0.000000000000,-0.000000000000,2.250023068319,54.314855577359,90.000000000000
1423,1,-0.000000000000,-0.000000000000,2.250022606952,56.564878184312,90.000000000000
1424,1,-0.000000000000,-0.000000000000,2.250022154813,58.814900339125,90.000000000000
1425,1,-0.000000000000,-0.000000000000,2.250021711717,61.064922050842,90.000000000000
1426,1,-0.000000000000,-0.000000000000,2.250021277483,63.314943328325,90.000000000000
1427,1,-0.000000000000,-0.000000000000,2.250020851933,65.564964180258,90.000000000000
1428,1,-0.000000000000,-0.000000000000,2.250020434895,67.814984615153,90.000000000000
1429,1,-0.000000000000,-0.000000000000,2.250020026197,70.065004641350,90.000000000000
1363,1,0.000000000000,-0.000000000001,2.500134771726,2.309382110415,90.000000000000
1364,1,0.000000000000,-0.000000000001,2.500132076291,4.809514186706,90.000000000000
1365,1,0.000000000000,-0.000000000001,2.500129434766,7.309643621472,90.000000000000
1366,1,0.000000000000,-0.000000000001,2.500126846071,9.809770467542,90.000000000000
1367,1,0.000000000000,-0.000000000001,2.500124309149,12.309894776691,90.000000000000
1368,1,0.000000000000,-0.000000000001,2.500121822966,14.810016599657,90.000000000000
1369,1,0.000000000000,-0.000000000000,2.500119386506,17.310135986164,90.000000000000
1370,1,0.000000000000,-0.000000000000,2.500116998777,19.810252984940,90.000000000000
1371,1,0.000000000000,-0.000000000000,2.500114658801,22.310367643741,90.000000000000
1372,1,0.000000000000,-0.000000000000,2.500112365625,24.810480009366,90.000000000000
1373,1,0.000000000000,-0.000000000000,2.500110118312,27.310590127678,90.000000000000
1374,1,0.000000000000,-0.000000000000,2.500107915947,29.810698043624,90.000000000000
1375,1,0.000000000000,-0.000000000000,2.500105757627,32.310803801252,90.000000000000
1376,1,0.000000000000,-0.000000000000,2.500103642475,34.810907443726,90.000000000000
1377,1,0.000000000000,-0.000000000000,2.500101569625,37.311009013352,90.000000000000
1378,1,0.000000000000,-0.000000000000,2.500099538233,39.811108551584,90.000000000000
1379,1,0.000000000000,-0.000000000000,2.500097547468,42.311206099052,90.000000000000
1380,1,0.000000000000,-0.000000000000,2.500095596518,44.811301695571,90.000000000000
1381,1,0.000000000000,-0.000000000000,2.500093684589,47.311395380159,90.000000000000
1382,1,0.000000000000,-0.000000000000,2.500091810896,49.811487191056,90.000000000000
1383,1,0.000000000000,-0.000000000000,2.500089974679,52.311577165734,90.000000000000
1384,1,0.000000000000,-0.000000000000,2.500088175185,54.811665340920,90.000000000000
1385,1,0.000000000000,-0.000000000000,2.500086411681,57.311751752601,90.000000000000
1386,1,0.000000000000,-0.000000000000,2.500084683448,59.811836436049,90.000000000000
1387,1,0.000000000000,-0.000000000000,2.500082989779,62.311919425827,90.000000000000
1388,1,0.000000000000,-0.000000000000,2.500081329983,64.812000755811,90.000000000000
1389,1,0.000000000000,-0.000000000000,2.500079703384,67.312080459194,90.000000000000
1390,1,0.000000000000,-0.000000000000,2.500078109316,69.812158568510,90.000000000000
1328,1,-0.000000000000,0.000000000004,2.750350286750,1.298821874215,90.000000000000
1329,1,-0.000000000000,0.000000000004,2.750343281015,4.049165155231,90.000000000000
1330,1,-0.000000000000,0.000000000004,2.750336415395,6.799501570626,90.000000000000
1331,1,-0.000000000000,0.000000000004,2.750329687087,9.549831257713,90.000000000000
1332,1,-0.000000000000,0.000000000004,2.750323093346,12.300154351058,90.000000000000
1333,1,-0.000000000000,0.000000000004,2.750316631478,15.050470982537,90.000000000000
1334,1,-0.000000000000,0.000000000004,2.750310298849,17.800781281386,90.000000000000
1335,1,-0.000000000000,0.000000000004,2.750304092872,20.551085374258,90.000000000000
1336,1,-0.000000000000,0.000000000004,2.750298011014,23.301383385273,90.000000000000
1337,1,-0.000000000000,0.000000000003,2.750292050795,26.051675436067,90.000000000000
1338,1,-0.000000000000,0.000000000003,2.750286209778,28.801961645845,90.000000000000
1339,1,-0.000000000000,0.000000000003,2.750280485583,31.552242131428,90.000000000000
1340,1,-0.000000000000,0.000000000003,2.750274875871,34.302517007299,90.000000000000
1341,1,-0.000000000000,0.000000000003,2.750269378354,37.052786385653,90.000000000000
1342,1,-0.000000000000,0.000000000003,2.750263990787,39.803050376440,90.000000000000
1343,1,-0.000000000000,0.000000000003,2.750258710971,42.553309087411,90.000000000000
1344,1,-0.000000000000,0.000000000003,2.750253536752,45.303562624162,90.000000000000
1345,1,-0.000000000000,0.000000000002,2.750248466016,48.053811090179,90.000000000000
1346,1,-0.000000000000,0.000000000002,2.750243496696,50.804054586875,90.000000000000
1347,1,-0.000000000000,0.000000000002,2.750238626762,53.554293213637,90.000000000000
1348,1,-0.000000000000,0.000000000002,2.750233854227,56.304527067864,90.000000000000
1349,1,-0.000000000000,0.000000000002,2.750229177143,59.054756245006,90.000000000000
1350,1,-0.000000000000,0.000000000002,2.750224593599,61.804980838606,90.000000000000
1351,1,-0.000000000000,0.000000000002,2.750220101728,64.555200940334,90.000000000000
1352,1,-0.000000000000,0.000000000002,2.750215699693,67.305416640027,90.000000000000
1353,1,-0.000000000000,0.000000000002,2.750211385699,70.055628025726,90.000000000000
1306,1,-0.000000000001,0.000000000024,3.000243879158,0.804035846244,90.000000000000
1307,1,-0.000000000001,0.000000000023,3.000239001575,3.804274847819,90.000000000000
1308,1,-0.000000000001,0.000000000022,3.000234221543,6.804509069362,90.000000000000
1309,1,-0.000000000001,0.000000000021,3.000229537112,9.804738606475,90.000000000000
1310,1,-0.000000000001,0.000000000020,3.000224946370,12.804963552845,90.000000000000
1311,1,-0.000000000001,0.000000000019,3.000220447443,15.805184000288,90.000000000000
1312,1,-0.000000000001,0.000000000018,3.000216038494,18.805400038782,90.000000000000
1313,1,-0.000000000001,0.000000000017,3.000211717724,21.805611756506,90.000000000000
1314,1,-0.000000000001,0.000000000016,3.000207483370,24.805819239876,90.000000000000
1315,1,-0.000000000001,0.000000000015,3.000203333702,27.806022573578,90.000000000000
1316,1,-0.000000000001,0.000000000014,3.000199267028,30.806221840606,90.000000000000
1317,1,-0.000000000001,0.000000000013,3.000195281687,33.806417122294,90.000000000000
1318,1,-0.000000000001,0.000000000013,3.000191376054,36.806608498348,90.000000000000
1319,1,-0.000000000001,0.000000000012,3.000187548533,39.806796046880,90.000000000000
1320,1,-0.000000000001,0.000000000011,3.000183797562,42.806979844442,90.000000000000
1321,1,-0.000000000001,0.000000000010,3.000180121611,45.807159966053,90.000000000000
1322,1,-0.000000000001,0.000000000010,3.000176519179,48.807336485232,90.000000000000
1323,1,-0.000000000001,0.000000000009,3.000172988795,51.807509474027,90.000000000000
1324,1,-0.000000000001,0.000000000008,3.000169529019,54.807679003046,90.000000000000
1325,1,-0.000000000001,0.000000000008,3.000166138439,57.807845141485,90.000000000000
1326,1,-0.000000000001,0.000000000007,3.000162815670,60.808007957155,90.000000000000
1327,1,-0.000000000001,0.000000000007,3.000159559357,63.808167516512,90.000000000000
1328,1,-0.000000000001,0.000000000006,3.000156368169,66.808323884681,90.000000000000
1329,1,-0.000000000000,0.000000000006,3.000153240806,69.808477125487,90.000000000000
1284,1,-0.000000000005,0.000000000071,3.250517075558,2.040649222669,90.000000000000
1285,1,-0.000000000005,0.000000000066,3.250506734047,5.291155956715,90.000000000000
1286,1,-0.000000000005,0.000000000062,3.250496599365,8.541652556081,90.000000000000
1287,1,-0.000000000004,0.000000000058,3.250486667378,11.792139223459,90.000000000000
1288,1,-0.000000000004,0.000000000054,3.250476934031,15.042616157489,90.000000000000
1289,1,-0.000000000004,0.000000000050,3.250467395350,18.293083552839,90.000000000000
1290,1,-0.000000000004,0.000000000046,3.250458047443,21.543541600282,90.000000000000
1291,1,-0.000000000004,0.000000000042,3.250448886494,24.793990486776,90.000000000000
1292,1,-0.000000000003,0.000000000039,3.250439908764,28.044430395541,90.000000000000
1293,1,-0.000000000003,0.000000000036,3.250431110589,31.294861506130,90.000000000000
1294,1,-0.000000000003,0.000000000033,3.250422488377,34.545283994507,90.000000000000
1295,1,-0.000000000003,0.000000000030,3.250414038610,37.795698033116,90.000000000000
1296,1,-0.000000000003,0.000000000027,3.250405757837,41.046103790954,90.000000000000
1297,1,-0.000000000003,0.000000000025,3.250397642681,44.296501433634,90.000000000000
1298,1,-0.000000000002,0.000000000022,3.250389689827,47.546891123461,90.000000000000
1299,1,-0.000000000002,0.000000000020,3.250381896030,50.797273019492,90.000000000000
1300,1,-0.000000000002,0.000000000018,3.250374258110,54.047647277602,90.000000000000
1301,1,-0.000000000002,0.000000000016,3.250366772948,57.298014050550,90.000000000000
1302,1,-0.000000000002,0.000000000014,3.250359437488,60.548373488038,90.000000000000
1303,1,-0.000000000002,0.000000000013,3.250352248739,63.798725736777,90.000000000000
1304,1,-0.000000000002,0.000000000011,3.250345203764,67.049070940541,90.000000000000
1305,1,-0.000000000001,0.000000000010,3.250338299689,70.299409240230,90.000000000000
1261,1,-0.000000000013,0.000000000145,3.500891926913,1.772281506285,90.000000000000
1262,1,-0.000000000012,0.000000000133,3.500874088374,5.273155594659,90.000000000000
1263,1,-0.000000000011,0.000000000121,3.500856606606,8.774012201265,90.000000000000
1264,1,-0.000000000011,0.000000000110,3.500839474475,12.274851675740,90.000000000000
1265,1,-0.000000000010,0.000000000100,3.500822684985,15.775674360725,90.000000000000
1266,1,-0.000000000010,0.000000000091,3.500806231285,19.276480592010,90.000000000000
1267,1,-0.000000000009,0.000000000082,3.500790106659,22.777270698669,90.000000000000
1268,1,-0.000000000008,0.000000000073,3.500774304526,26.278045003196,90.000000000000
1269,1,-0.000000000008,0.000000000065,3.500758818436,29.778803821632,90.000000000000
1270,1,-0.000000000007,0.000000000058,3.500743642067,33.279547463699,90.000000000000
1271,1,-0.000000000007,0.000000000051,3.500728769226,36.780276232924,90.000000000000
1272,1,-0.000000000006,0.000000000044,3.500714193841,40.280990426766,90.000000000000
1273,1,-0.000000000006,0.000000000038,3.500699909965,43.781690336730,90.000000000000
1274,1,-0.000000000006,0.000000000033,3.500685911765,47.282376248495,90.000000000000
1275,1,-0.000000000005,0.000000000027,3.500672193530,50.783048442025,90.000000000000
1276,1,-0.000000000005,0.000000000023,3.500658749659,54.283707191684,90.000000000000
1277,1,-0.000000000004,0.000000000018,3.500645574666,57.784352766350,90.000000000000
1278,1,-0.000000000004,0.000000000014,3.500632663172,61.284985429523,90.000000000000
1279,1,-0.000000000004,0.000000000011,3.500620009910,64.785605439432,90.000000000000
1280,1,-0.000000000003,0.000000000007,3.500607609711,68.286213049143,90.000000000000
1245,1,-0.000000000030,0.000000000289,3.751314067444,2.251596620225,90.000000000000
1246,1,-0.000000000028,0.000000000260,3.751287786095,6.002884406320,90.000000000000
1247,1,-0.000000000027,0.000000000234,3.751262030373,9.754146436693,90.000000000000
1248,1,-0.000000000025,0.000000000208,3.751236789766,13.505383226459,90.000000000000
1249,1,-0.000000000024,0.000000000185,3.751212053970,17.256595280430,90.000000000000
1250,1,-0.000000000022,0.000000000162,3.751187812891,21.007783093321,90.000000000000
1251,1,-0.000000000021,0.000000000142,3.751164056633,24.758947149954,90.000000000000
1252,1,-0.000000000019,0.000000000122,3.751140775501,28.510087925455,90.000000000000
1253,1,-0.000000000018,0.000000000104,3.751117959991,32.261205885445,90.000000000000
1254,1,-0.000000000017,0.000000000088,3.751095600790,36.012301486236,90.000000000000
1255,1,-0.000000000015,0.000000000072,3.751073688775,39.763375175011,90.000000000000
1256,1,-0.000000000014,0.000000000058,3.751052215000,43.514427390011,90.000000000000
1257,1,-0.000000000013,0.000000000045,3.751031170699,47.265458560710,90.000000000000
1258,1,-0.000000000012,0.000000000033,3.751010547286,51.016469107996,90.000000000000
1259,1,-0.000000000011,0.000000000022,3.750990336340,54.767459444336,90.000000000000
1260,1,-0.000000000010,0.000000000012,3.750970529613,58.518429973949,90.000000000000
1261,1,-0.000000000009,0.000000000003,3.750951119021,62.269381092969,90.000000000000
1262,1,-0.000000000008,-0.000000000005,3.750932096640,66.020313189610,90.000000000000
1263,1,-0.000000000007,-0.000000000012,3.750913454708,69.771226644317,90.000000000000
1231,1,-0.000000000065,0.000000000561,4.001705451664,1.732418793436,90.000000000000
1232,1,-0.000000000061,0.000000000500,4.001671342631,5.734090136067,90.000000000000
1233,1,-0.000000000057,0.000000000443,4.001637915778,9.735728051845,90.000000000000
1234,1,-0.000000000054,0.000000000389,4.001605157463,13.737333209308,90.000000000000
1235,1,-0.000000000050,0.000000000338,4.001573054313,17.738906263621,90.000000000000
1236,1,-0.000000000047,0.000000000291,4.001541593228,21.740447856849,90.000000000000
1237,1,-0.000000000044,0.000000000247,4.001510761363,25.741958618211,90.000000000000
1238,1,-0.000000000041,0.000000000207,4.001480546136,29.743439164347,90.000000000000
1239,1,-0.000000000038,0.000000000169,4.001450935213,33.744890099560,90.000000000000
1240,1,-0.000000000035,0.000000000134,4.001421916509,37.746312016068,90.000000000000
1241,1,-0.000000000032,0.000000000102,4.001393478178,41.747705494247,90.000000000000
1242,1,-0.000000000029,0.000000000073,4.001365608615,45.749071102861,90.000000000000
1243,1,-0.000000000027,0.000000000046,4.001338296443,49.750409399304,90.000000000000
1244,1,-0.000000000024,0.000000000022,4.001311530514,53.751720929818,90.000000000000
1245,1,-0.000000000022,-0.000000000000,4.001285299903,57.753006229721,90.000000000000
1246,1,-0.000000000020,-0.000000000020,4.001259593905,61.754265823626,90.000000000000
1247,1,-0.000000000018,-0.000000000037,4.001234402027,65.755500225654,90.000000000000
1248,1,-0.000000000016,-0.000000000053,4.001209713987,69.756709939640,90.000000000000
1223,1,-0.000000000141,0.000000001170,4.251922123651,1.721801866103,90.000000000000
1224,1,-0.000000000133,0.000000001037,4.251883681178,5.973685547281,90.000000000000
1225,1,-0.000000000126,0.000000000911,4.251846007554,10.225531554835,90.000000000000
1226,1,-0.000000000118,0.000000000793,4.251809087403,14.477340642238,90.000000000000
1227,1,-0.000000000110,0.000000000683,4.251772905655,18.729113547893,90.000000000000
1228,1,-0.000000000103,0.000000000580,4.251737447542,22.980850995435,90.000000000000
1229,1,-0.000000000096,0.000000000484,4.251702698591,27.232553694026,90.000000000000
1230,1,-0.000000000089,0.000000000396,4.251668644619,31.484222338645,90.000000000000
1231,1,-0.000000000082,0.000000000314,4.251635271727,35.735857610372,90.000000000000
1232,1,-0.000000000075,0.000000000238,4.251602566293,39.987460176664,90.000000000000
1233,1,-0.000000000069,0.000000000169,4.251570514966,44.239030691631,90.000000000000
1234,1,-0.000000000063,0.000000000106,4.251539104667,48.490569796298,90.000000000000
1235,1,-0.000000000057,0.000000000049,4.251508322573,52.742078118872,90.000000000000
1236,1,-0.000000000052,-0.000000000003,4.251478156123,56.993556274994,90.000000000000
1237,1,-0.000000000047,-0.000000000050,4.251448593000,61.245004867994,90.000000000000
1238,1,-0.000000000042,-0.000000000092,4.251419621140,65.496424489134,90.000000000000
1239,1,-0.000000000037,-0.000000000129,4.251391228717,69.747815717851,90.000000000000
1209,1,-0.000000000218,0.000000001755,4.501776701658,3.728927543727,90.000000000000
1210,1,-0.000000000206,0.000000001549,4.501741167625,8.230668711353,90.000000000000
1211,1,-0.000000000194,0.000000001355,4.501706344272,12.732375055625,90.000000000000
1212,1,-0.000000000182,0.000000001172,4.501672217387,17.234047273013,90.000000000000
1213,1,-0.000000000171,0.000000001002,4.501638773039,21.735686046052,90.000000000000
1214,1,-0.000000000159,0.000000000842,4.501605997579,26.237292043631,90.000000000000
1215,1,-0.000000000148,0.000000000694,4.501573877627,30.738865921258,90.000000000000
1216,1,-0.000000000137,0.000000000557,4.501542400074,35.240408321332,90.000000000000
1217,1,-0.000000000127,0.000000000430,4.501511552073,39.741919873405,90.000000000000
1218,1,-0.000000000116,0.000000000314,4.501481321031,44.243401194437,90.000000000000
1219,1,-0.000000000107,0.000000000207,4.501451694611,48.744852889048,90.000000000000
1220,1,-0.000000000097,0.000000000110,4.501422660719,53.246275549767,90.000000000000
1221,1,-0.000000000088,0.000000000022,4.501394207504,57.747669757271,90.000000000000
1222,1,-0.000000000079,-0.000000000057,4.501366323354,62.249036080626,90.000000000000
1223,1,-0.000000000071,-0.000000000128,4.501338996887,66.750375077513,90.000000000000
1200,1,-0.000000000358,0.000000002950,4.751092763779,4.512440499834,90.000000000000
1201,1,-0.000000000340,0.000000002610,4.751070908503,9.263511408337,90.000000000000
1202,1,-0.000000000321,0.000000002288,4.751049490333,14.014560898670,90.000000000000
1203,1,-0.000000000303,0.000000001985,4.751028500526,18.765589399196,90.000000000000
1204,1,-0.000000000284,0.000000001701,4.751007930516,23.516597329712,90.000000000000
1205,1,-0.000000000266,0.000000001435,4.750987771905,28.267585101618,90.000000000000
1206,1,-0.000000000248,0.000000001187,4.750968016468,33.018553118085,90.000000000000
1207,1,-0.000000000230,0.000000000957,4.750948656138,37.769501774223,90.000000000000
1208,1,-0.000000000213,0.000000000744,4.750929683015,42.520431457238,90.000000000000
1209,1,-0.000000000196,0.000000000548,4.750911089355,47.271342546593,90.000000000000
1210,1,-0.000000000180,0.000000000368,4.750892867568,52.022235414161,90.000000000000
1211,1,-0.000000000164,0.000000000204,4.750875010217,56.773110424378,90.000000000000
1212,1,-0.000000000149,0.000000000055,4.750857510012,61.523967934390,90.000000000000
1213,1,-0.000000000134,-0.000000000079,4.750840359812,66.274808294202,90.000000000000
1190,1,-0.000000000584,0.000000005132,5.003724299752,4.633495237135,90.000000000000
1191,1,-0.000000000557,0.000000004574,5.003649813757,9.637145050892,90.000000000000
1192,1,-0.000000000530,0.000000004044,5.003576817482,14.640721868374,90.000000000000
1193,1,-0.000000000502,0.000000003542,5.003505281132,19.644227149506,90.000000000000
1194,1,-0.000000000474,0.000000003067,5.003435175510,24.647662325016,90.000000000000
1195,1,-0.000000000446,0.000000002621,5.003366471999,29.651028797015,90.000000000000
1196,1,-0.000000000418,0.000000002203,5.003299142559,34.654327939575,90.000000000000
1197,1,-0.000000000390,0.000000001814,5.003233159709,39.657561099283,90.000000000000
1198,1,-0.000000000362,0.000000001451,5.003168496514,44.660729595797,90.000000000000
1199,1,-0.000000000335,0.000000001116,5.003105126584,49.663834722381,90.000000000000
1200,1,-0.000000000309,0.000000000808,5.003043024052,54.666877746433,90.000000000000
1201,1,-0.000000000283,0.000000000525,5.002982163571,59.669859910004,90.000000000000
1202,1,-0.000000000258,0.000000000267,5.002922520300,64.672782430304,90.000000000000
1203,1,-0.000000000234,0.000000000034,5.002864069893,69.675646500197,90.000000000000
1184,1,-0.000000000842,0.000000007904,5.251727382808,4.731344167397,90.000000000000
1185,1,-0.000000000809,0.000000007095,5.251692835152,9.983037002549,90.000000000000
1186,1,-0.000000000775,0.000000006320,5.251658978449,15.234695980997,90.000000000000
1187,1,-0.000000000739,0.000000005581,5.251625798880,20.486321779877,90.000000000000
1188,1,-0.000000000702,0.000000004879,5.251593282902,25.737915062779,90.000000000000
1189,1,-0.000000000664,0.000000004216,5.251561417244,30.989476480023,90.000000000000
1190,1,-0.000000000625,0.000000003591,5.251530188899,36.241006668923,90.000000000000
1191,1,-0.000000000586,0.000000003005,5.251499585122,41.492506254044,90.000000000000
1192,1,-0.000000000547,0.000000002458,5.251469593419,46.743975847463,90.000000000000
1193,1,-0.000000000509,0.000000001949,5.251440201550,51.995416049013,90.000000000000
1194,1,-0.000000000470,0.000000001479,5.251411397519,57.246827446533,90.000000000000
1195,1,-0.000000000433,0.000000001046,5.251383169569,62.498210616102,90.000000000000
1196,1,-0.000000000397,0.000000000649,5.251355506178,67.749566122280,90.000000000000
1177,1,-0.000000001186,0.000000012189,5.503759302756,4.631780089959,90.000000000000
1178,1,0.042211071569,0.042211083758,5.503684116700,10.135464206659,90.000000000000
1179,1,0.079886932765,0.122098016523,5.503610434367,15.639074641026,90.000000000000
1180,1,0.113222394542,0.235320411064,5.503538225679,21.142612866705,90.000000000000
1181,1,0.142422647720,0.377743058784,5.503467461166,26.646080327871,90.000000000000
1182,1,0.167700810605,0.545443869389,5.503398111942,32.149478439813,90.000000000000
1183,1,0.189275668558,0.734719537947,5.503330149704,37.652808589516,90.000000000000
1184,1,0.207369600794,0.942089138740,5.503263546709,43.156072136226,90.000000000000
1185,1,0.222206689941,1.164295828682,5.503198275776,48.659270412001,90.000000000000
1186,1,0.234011009082,1.398306837763,5.503134310260,54.162404722261,90.000000000000
1187,1,0.243005080304,1.641311918068,5.503071624054,59.665476346315,90.000000000000
1188,1,0.249408498216,1.890720416283,5.503010191574,65.168486537889,90.000000000000
1189,1,0.253436711366,2.144157127649,5.502949987742,70.671436525631,90.000000000000
1171,1,-0.000000001580,0.000000018380,5.761813375895,4.487130506121,90.000000000000
1172,1,0.127308184308,0.127308202687,5.761577108377,10.248707614498,90.000000000000
1173,1,0.240887363834,0.368195566522,5.761345566210,16.010053180708,90.000000000000
1174,1,0.341294182613,0.709489749135,5.761118654886,21.771171835594,90.000000000000
1175,1,0.429124542662,1.138614291797,5.760896281788,27.532068117381,90.000000000000
1176,1,0.505005367811,1.643619659608,5.760678356152,33.292746473533,90.000000000000
1177,1,0.569586970853,2.213206630461,5.760464789029,39.053211262563,90.000000000000
1178,1,0.623536017171,2.836742647632,5.760255493249,44.813466755811,90.000000000000
1179,1,0.667529075841,3.504271723472,5.760050383383,50.573517139195,90.000000000000
1180,1,0.702246745808,4.206518469281,5.759849375716,56.333366514910,90.000000000000
1181,1,0.728368341897,4.934886811178,5.759652388202,62.093018903112,90.000000000000
1182,1,0.746567122819,5.681453933997,5.759459340437,67.852478243549,90.000000000000
1165,1,-0.000000001922,0.000000024825,6.005980164677,1.522957855808,90.000000000000
1166,1,0.214680744028,0.214680768853,6.005860561384,7.528818417191,90.000000000000
1167,1,0.406237306608,0.620918075461,6.005743350156,13.534561767347,90.000000000000
1168,1,0.575545007784,1.196463083245,6.005628483153,19.540190250500,90.000000000000
1169,1,0.723558723083,1.920021806328,6.005515913490,25.545706163990,90.000000000000
1170,1,0.851297742670,2.771319548998,6.005405595220,31.551111759210,90.000000000000
1171,1,0.959831664164,3.731151213162,6.005297483316,37.556409242525,90.000000000000
1172,1,1.050267319894,4.781418533056,6.005191533649,43.561600776174,90.000000000000
1173,1,1.123736733250,5.905155266307,6.005087702976,49.566688479151,90.000000000000
1174,1,1.181386091601,7.086541357908,6.004985948917,55.571674428067,90.000000000000
1175,1,1.224365716827,8.310907074735,6.004886229938,61.576560658006,90.000000000000
1176,1,1.253821008954,9.564728083688,6.004788505340,67.581349163345,90.000000000000
1165,1,-0.000000002542,0.000000034143,6.255007493669,5.820618735207,90.000000000000
1166,1,0.310658377932,0.310658412075,6.254907343796,12.075526079002,90.000000000000
1167,1,0.587782003748,0.898440415823,6.254809196920,18.330335275922,90.000000000000
1168,1,0.832558533279,1.730998949102,6.254713012981,24.585048288903,90.000000000000
1169,1,1.046309842924,2.777308792026,6.254618752722,30.839667041625,90.000000000000
1170,1,1.230468251651,4.007777043677,6.254526377667,37.094193419292,90.000000000000
1171,1,1.386554261286,5.394331304963,6.254435850114,43.348629269406,90.000000000000
1172,1,1.516155834986,6.910487139949,6.254347133112,49.602976402518,90.000000000000
1173,1,1.620909222055,8.531396362004,6.254260190449,55.857236592967,90.000000000000
1174,1,1.702481324345,10.233877686349,6.254174986640,62.111411579608,90.000000000000
1175,1,1.762553587892,11.996431274242,6.254091486907,68.365503066515,90.000000000000
1157,1,-0.000000002499,0.000000038779,6.510469009037,4.303004482191,90.000000000000
1158,1,0.416320282948,0.416320321727,6.510259628856,10.813264111047,90.000000000000
1159,1,0.787531008666,1.203851330394,6.510054436279,17.323318547326,90.000000000000
1160,1,1.115124388203,2.318975718597,6.509853347553,23.833171894879,90.000000000000
1161,1,1.400798579309,3.719774297906,6.509656280602,30.342828175481,90.000000000000
1162,1,1.646423218212,5.366197516118,6.509463154990,36.852291330471,90.000000000000
1163,1,1.854007009729,7.220204525846,6.509273891890,43.361565222362,90.000000000000
1164,1,2.025667431356,9.245871957203,6.509088414052,49.870653636414,90.000000000000
1165,1,2.163602586415,11.409474543618,6.508906645772,56.379560282186,90.000000000000
1166,1,2.270065220267,13.679539763885,6.508728512856,62.888288795042,90.000000000000
1167,1,2.347338894596,16.026878658481,6.508553942599,69.396842737640,90.000000000000
1153,1,-0.000000002718,0.000000047037,6.764409412546,4.109924710236,90.000000000000
1154,1,0.528584354712,0.528584401749,6.764121224295,10.874045934531,90.000000000000
1155,1,0.999709524550,1.528293926299,6.763838799809,17.637884734341,90.000000000000
1156,1,1.415141169216,2.943435095515,6.763562023813,24.401446758153,90.000000000000
1157,1,1.776939667813,4.720374763329,6.763290783337,31.164737541490,90.000000000000
1158,1,2.087413132057,6.807787895386,6.763024967670,37.927762509160,90.000000000000
1159,1,2.349073034170,9.156860929556,6.762764468317,44.690526977477,90.000000000000
1160,1,2.564592560728,11.721453490284,6.762509178950,51.453036156427,90.000000000000
1161,1,2.736767771926,14.458221262211,6.762258995371,58.215295151798,90.000000000000
1162,1,2.868481613940,17.326702876151,6.762013815464,64.977308967262,90.000000000000
1149,1,-0.000000002747,0.000000057064,7.016003701407,0.031804556032,90.000000000000
1150,1,0.646921353982,0.646921411047,7.015683627379,7.047488183411,90.000000000000
1151,1,1.223322288288,1.870243699334,7.015369954831,14.062858138243,90.000000000000
1152,1,1.731203879427,3.601447578762,7.015062555735,21.077920693977,90.000000000000
1153,1,2.172968519630,5.774416098391,7.014761304620,28.092681998598,90.000000000000
1154,1,2.551358589425,8.325774687816,7.014466078528,35.107148077125,90.000000000000
1155,1,2.869398294844,11.195172982661,7.014176756958,42.121324834083,90.000000000000
1156,1,3.130338860492,14.325511843152,7.013893221818,49.135218055901,90.000000000000
1157,1,3.337607223495,17.663119066647,7.013615357382,56.148833413282,90.000000000000
1158,1,3.494758328005,21.157877394652,7.013343050234,63.162176463516,90.000000000000
1159,1,3.605431078235,24.763308472887,7.013076189229,70.175252652746,90.000000000000
1146,1,-0.000000003023,0.000000063578,7.253182440779,3.410046326804,90.000000000000
1147,1,0.764958513115,0.764958576694,7.253118791964,10.663165118768,90.000000000000
1148,1,1.446453239041,2.211411815734,7.253056416124,17.916221534892,90.000000000000
1149,1,2.046652674280,4.258064490014,7.252995287802,25.169216822694,90.000000000000
1150,1,2.568245650967,6.826310140981,7.252935382046,32.422152204740,90.000000000000
1151,1,3.014364892927,9.840675033908,7.252876674405,39.675028879145,90.000000000000
1152,1,3.388514196905,13.229189230814,7.252819140917,46.927848020062,90.000000000000
1153,1,3.694499533954,16.923688764768,7.252762758098,54.180610778160,90.000000000000
1154,1,3.936364303653,20.860053068421,7.252707502937,61.433318281097,90.000000000000
1155,1,4.118328912854,24.978381981275,7.252653352878,68.685971633975,90.000000000000
1147,1,-0.000000003355,0.000000083068,7.506443396928,2.000259475527,90.000000000000
1148,1,0.897942843949,0.897942927017,7.506314528989,9.506574004516,90.000000000000
1149,1,1.697596614176,2.595539541194,7.506188238409,17.012762242925,90.000000000000
1150,1,2.401288950495,4.996828491688,7.506064473641,24.518826716567,90.000000000000
1151,1,3.012015432369,8.008843924057,7.505943184168,32.024769900735,90.000000000000
1152,1,3.533344603864,11.542188527921,7.505824320485,39.530594221220,90.000000000000
1153,1,3.969327129020,15.511515656942,7.505707834076,47.036302055295,90.000000000000
1154,1,4.324409514140,19.835925171082,7.505593677394,54.541895732689,90.000000000000
1155,1,4.603352749887,24.439277920969,7.505481803846,62.047377536535,90.000000000000
1156,1,4.811156144556,29.250434065525,7.505372167769,69.552749704304,90.000000000000
1145,1,-0.000000003394,0.000000091844,7.754277356352,4.606395463718,90.000000000000
1146,1,1.035019862462,1.035019954305,7.754191809225,12.360587272943,90.000000000000
1147,1,1.956457062632,2.991477016937,7.754107973041,20.114695245984,90.000000000000
1148,1,2.766739897002,5.758216913939,7.754025813580,27.868721059564,90.000000000000
1149,1,3.469131460684,9.227348374623,7.753945297309,35.622666356873,90.000000000000
1150,1,4.067614481625,13.294962856248,7.753866391362,43.376532748235,90.000000000000
1151,1,4.566780703752,17.861743560000,7.753789063535,51.130321811770,90.000000000000
1152,1,4.971725433431,22.833468993431,7.753713282264,58.884035094034,90.000000000000
1153,1,5.287947755134,28.121416748566,7.753639016619,66.637674110653,90.000000000000
1139,1,-0.000000002764,0.000000089266,8.006452503988,5.499813229575,90.000000000000
1140,1,1.181546631895,1.181546721161,8.006323453908,13.506136683483,90.000000000000
1141,1,2.233036994407,3.414583715568,8.006196984830,21.512333668313,90.000000000000
1142,1,3.156955574713,6.571539290281,8.006073045134,29.518406713447,90.000000000000
1143,1,3.956815546689,10.528354836970,8.005951584231,37.524358297678,90.000000000000
1144,1,4.637020645772,15.165375482742,8.005832552546,45.530190850224,90.000000000000
1145,1,5.202731953833,20.368107436575,8.005715901495,53.535906751719,90.000000000000
1146,1,5.659740434128,26.027847870703,8.005601583466,61.541508335184,90.000000000000
1147,1,6.014345917148,32.042193787851,8.005489551796,69.546997886980,90.000000000000
1136,1,-0.000000002139,0.000000095506,8.261527276808,4.001149361426,90.000000000000
1137,1,1.336991167120,1.336991262625,8.261296731271,12.262446092697,90.000000000000
1138,1,2.526332837872,3.863324100497,8.261070796646,20.523516889343,90.000000000000
1139,1,3.570512051848,7.433836152345,8.260849380713,28.784366270056,90.000000000000
1140,1,4.473267010106,11.907103162452,8.260632393099,37.044998663154,90.000000000000
1141,1,5.239423161994,17.146526324445,8.260419745237,45.305418408391,90.000000000000
1142,1,5.874734472926,23.021260797372,8.260211350332,53.565629758723,90.000000000000
1143,1,6.385730993103,29.406991790475,8.260007123325,61.825636882048,90.000000000000
1144,1,6.779573671621,36.186565462096,8.259806980859,70.085443862907,90.000000000000
1136,1,-0.000000001165,0.000000099752,8.516781591879,0.493687922910,90.000000000000
1137,1,1.499827079414,1.499827179165,8.516445960041,9.010133882951,90.000000000000
1138,1,2.833486062087,4.333313241252,8.516117040841,17.526250923792,90.000000000000
1139,1,4.003402385072,8.336715626324,8.515794700024,26.042045623816,90.000000000000
1140,1,5.013503428172,13.350219054497,8.515478806024,34.557524429839,90.000000000000
1141,1,5.869026193873,19.219245248369,8.515169229903,43.072693659742,90.000000000000
1142,1,6.576330303385,25.795575551755,8.514865845305,51.587559505047,90.000000000000
1143,1,7.142717768461,32.938293320215,8.514568528399,60.102128033446,90.000000000000
1144,1,7.576260780968,40.514554101183,8.514277157831,68.616405191277,90.000000000000
1134,1,-0.000000000907,0.000000105045,8.766798403596,0.242864148784,90.000000000000
1135,1,1.666383652739,1.666383757784,8.766462435524,9.009326584308,90.000000000000
1136,1,3.147640073888,4.814023831671,8.766133186814,17.775459771122,90.000000000000
1137,1,4.446056825929,9.260080657601,8.765810523077,26.541270294199,90.000000000000
1138,1,5.565697797308,14.825778454909,8.765494312616,35.306764606815,90.000000000000
1139,1,6.512180683716,21.337959138625,8.765184426363,44.071949033178,90.000000000000
1140,1,7.292459722457,28.630418861082,8.764880737836,52.836829771014,90.000000000000
1141,1,7.914615536567,36.545034397649,8.764583123079,61.601412894094,90.000000000000
1142,1,8.387653681857,44.932688079506,8.764291460618,70.365704354712,90.000000000000
